firstPhaseRestarts,firstPhaseTime,result
1,1.5,4091.92
1,1.8375519294688092,4094.69
1,2.2510647289963623,4090.52
1,2.7576322240842983,4090.82
1,3.3781949427543108,4087.84
1,4.138405756786638,4090.59
1,5.0696903222054095,4094.7
1,6.210546155585266,4097.59
1,7.608134047500534,4092.88
1,9.32022759909463,4087.96
1,11.417601471869856,4096.63
1,13.986957076360246,4081.2
1,17.134506642042123,4089.64
1,20.990363827053752,4086.91
1,25.71392236710328,4086.68
1,31.50044510658787,4095.91
1,38.58913578982457,4088.32
1,47.273027284750675,4094.31
1,57.91109499928351,4088.49
1,70.94309623572329,4098.14
1,86.90774891362983,4101.34
1,106.46500113468754,4092.08
1,130.42331217062937,4093.48
1,159.77307261790187,4095.05
1,195.72754524412383,4090.86
1,239.7730189423556,4090.9
1,293.73024906139125,4096.43
1,359.8297239374089,4073.0
1,440.8038690009431,4073.0
1,539.9999999999994,4067.0
2,1.5,4091.99
2,1.8375519294688092,4091.74
2,2.2510647289963623,4094.32
2,2.7576322240842983,4094.38
2,3.3781949427543108,4096.37
2,4.138405756786638,4098.46
2,5.0696903222054095,4096.01
2,6.210546155585266,4097.5
2,7.608134047500534,4099.78
2,9.32022759909463,4090.4
2,11.417601471869856,4094.01
2,13.986957076360246,4088.18
2,17.134506642042123,4087.47
2,20.990363827053752,4099.12
2,25.71392236710328,4089.38
2,31.50044510658787,4085.39
2,38.58913578982457,4086.16
2,47.273027284750675,4091.43
2,57.91109499928351,4087.75
2,70.94309623572329,4091.76
2,86.90774891362983,4085.48
2,106.46500113468754,4090.52
2,130.42331217062937,4088.14
2,159.77307261790187,4088.21
2,195.72754524412383,4087.23
2,239.7730189423556,4083.79
2,293.73024906139125,Infinity
2,359.8297239374089,Infinity
2,440.8038690009431,Infinity
2,539.9999999999994,Infinity
3,1.5,4092.56
3,1.8375519294688092,4092.83
3,2.2510647289963623,4088.94
3,2.7576322240842983,4094.17
3,3.3781949427543108,4090.72
3,4.138405756786638,4094.58
3,5.0696903222054095,4092.39
3,6.210546155585266,4093.43
3,7.608134047500534,4097.02
3,9.32022759909463,4098.75
3,11.417601471869856,4092.18
3,13.986957076360246,4090.02
3,17.134506642042123,4093.2
3,20.990363827053752,4089.37
3,25.71392236710328,4087.86
3,31.50044510658787,4088.54
3,38.58913578982457,4083.1
3,47.273027284750675,4086.55
3,57.91109499928351,4096.02
3,70.94309623572329,4084.73
3,86.90774891362983,4088.52
3,106.46500113468754,4086.91
3,130.42331217062937,4088.17
3,159.77307261790187,4080.4
3,195.72754524412383,Infinity
3,239.7730189423556,Infinity
3,293.73024906139125,Infinity
3,359.8297239374089,Infinity
3,440.8038690009431,Infinity
3,539.9999999999994,Infinity
4,1.5,4091.04
4,1.8375519294688092,4093.44
4,2.2510647289963623,4096.51
4,2.7576322240842983,4095.61
4,3.3781949427543108,4093.66
4,4.138405756786638,4096.92
4,5.0696903222054095,4097.49
4,6.210546155585266,4098.1
4,7.608134047500534,4094.59
4,9.32022759909463,4097.7
4,11.417601471869856,4085.83
4,13.986957076360246,4101.19
4,17.134506642042123,4086.16
4,20.990363827053752,4087.78
4,25.71392236710328,4084.84
4,31.50044510658787,4090.35
4,38.58913578982457,4090.04
4,47.273027284750675,4081.04
4,57.91109499928351,4077.51
4,70.94309623572329,4082.88
4,86.90774891362983,4084.7
4,106.46500113468754,4083.16
4,130.42331217062937,4084.41
4,159.77307261790187,Infinity
4,195.72754524412383,Infinity
4,239.7730189423556,Infinity
4,293.73024906139125,Infinity
4,359.8297239374089,Infinity
4,440.8038690009431,Infinity
4,539.9999999999994,Infinity
5,1.5,4089.29
5,1.8375519294688092,4087.95
5,2.2510647289963623,4093.86
5,2.7576322240842983,4095.03
5,3.3781949427543108,4086.79
5,4.138405756786638,4100.95
5,5.0696903222054095,4088.11
5,6.210546155585266,4095.1
5,7.608134047500534,4092.78
5,9.32022759909463,4094.87
5,11.417601471869856,4094.49
5,13.986957076360246,4089.24
5,17.134506642042123,4085.28
5,20.990363827053752,4086.65
5,25.71392236710328,4083.28
5,31.50044510658787,4088.34
5,38.58913578982457,4085.3
5,47.273027284750675,4081.72
5,57.91109499928351,4082.28
5,70.94309623572329,4084.01
5,86.90774891362983,4079.51
5,106.46500113468754,4081.64
5,130.42331217062937,Infinity
5,159.77307261790187,Infinity
5,195.72754524412383,Infinity
5,239.7730189423556,Infinity
5,293.73024906139125,Infinity
5,359.8297239374089,Infinity
5,440.8038690009431,Infinity
5,539.9999999999994,Infinity
6,1.5,4095.86
6,1.8375519294688092,4100.57
6,2.2510647289963623,4093.81
6,2.7576322240842983,4093.49
6,3.3781949427543108,4089.96
6,4.138405756786638,4092.96
6,5.0696903222054095,4097.39
6,6.210546155585266,4088.4
6,7.608134047500534,4099.13
6,9.32022759909463,4098.13
6,11.417601471869856,4096.08
6,13.986957076360246,4088.78
6,17.134506642042123,4082.73
6,20.990363827053752,4088.95
6,25.71392236710328,4081.72
6,31.50044510658787,4080.31
6,38.58913578982457,4079.37
6,47.273027284750675,4086.69
6,57.91109499928351,4080.29
6,70.94309623572329,4080.89
6,86.90774891362983,4083.94
6,106.46500113468754,Infinity
6,130.42331217062937,Infinity
6,159.77307261790187,Infinity
6,195.72754524412383,Infinity
6,239.7730189423556,Infinity
6,293.73024906139125,Infinity
6,359.8297239374089,Infinity
6,440.8038690009431,Infinity
6,539.9999999999994,Infinity
7,1.5,4095.75
7,1.8375519294688092,4093.54
7,2.2510647289963623,4093.13
7,2.7576322240842983,4098.25
7,3.3781949427543108,4096.64
7,4.138405756786638,4089.13
7,5.0696903222054095,4090.26
7,6.210546155585266,4095.16
7,7.608134047500534,4097.98
7,9.32022759909463,4097.58
7,11.417601471869856,4088.97
7,13.986957076360246,4089.39
7,17.134506642042123,4090.71
7,20.990363827053752,4091.3
7,25.71392236710328,4082.33
7,31.50044510658787,4081.42
7,38.58913578982457,4082.55
7,47.273027284750675,4083.78
7,57.91109499928351,4077.5
7,70.94309623572329,4083.01
7,86.90774891362983,Infinity
7,106.46500113468754,Infinity
7,130.42331217062937,Infinity
7,159.77307261790187,Infinity
7,195.72754524412383,Infinity
7,239.7730189423556,Infinity
7,293.73024906139125,Infinity
7,359.8297239374089,Infinity
7,440.8038690009431,Infinity
7,539.9999999999994,Infinity
8,1.5,4092.21
8,1.8375519294688092,4099.82
8,2.2510647289963623,4097.38
8,2.7576322240842983,4088.65
8,3.3781949427543108,4093.67
8,4.138405756786638,4095.63
8,5.0696903222054095,4089.19
8,6.210546155585266,4091.29
8,7.608134047500534,4098.84
8,9.32022759909463,4093.33
8,11.417601471869856,4094.87
8,13.986957076360246,4092.47
8,17.134506642042123,4084.94
8,20.990363827053752,4083.48
8,25.71392236710328,4081.62
8,31.50044510658787,4085.48
8,38.58913578982457,4081.35
8,47.273027284750675,4084.44
8,57.91109499928351,4082.41
8,70.94309623572329,Infinity
8,86.90774891362983,Infinity
8,106.46500113468754,Infinity
8,130.42331217062937,Infinity
8,159.77307261790187,Infinity
8,195.72754524412383,Infinity
8,239.7730189423556,Infinity
8,293.73024906139125,Infinity
8,359.8297239374089,Infinity
8,440.8038690009431,Infinity
8,539.9999999999994,Infinity
10,1.5,4092.99
10,1.8375519294688092,4089.98
10,2.2510647289963623,4093.04
10,2.7576322240842983,4098.77
10,3.3781949427543108,4095.95
10,4.138405756786638,4095.62
10,5.0696903222054095,4092.64
10,6.210546155585266,4097.22
10,7.608134047500534,4093.06
10,9.32022759909463,4092.19
10,11.417601471869856,4094.12
10,13.986957076360246,4092.65
10,17.134506642042123,4086.57
10,20.990363827053752,4084.45
10,25.71392236710328,4080.44
10,31.50044510658787,4083.03
10,38.58913578982457,4079.96
10,47.273027284750675,4082.58
10,57.91109499928351,Infinity
10,70.94309623572329,Infinity
10,86.90774891362983,Infinity
10,106.46500113468754,Infinity
10,130.42331217062937,Infinity
10,159.77307261790187,Infinity
10,195.72754524412383,Infinity
10,239.7730189423556,Infinity
10,293.73024906139125,Infinity
10,359.8297239374089,Infinity
10,440.8038690009431,Infinity
10,539.9999999999994,Infinity
12,1.5,4097.36
12,1.8375519294688092,4099.59
12,2.2510647289963623,4094.72
12,2.7576322240842983,4088.25
12,3.3781949427543108,4092.67
12,4.138405756786638,4092.7
12,5.0696903222054095,4088.11
12,6.210546155585266,4089.82
12,7.608134047500534,4090.24
12,9.32022759909463,4090.9
12,11.417601471869856,4090.83
12,13.986957076360246,4087.23
12,17.134506642042123,4089.48
12,20.990363827053752,4089.41
12,25.71392236710328,4084.78
12,31.50044510658787,4087.4
12,38.58913578982457,4089.83
12,47.273027284750675,Infinity
12,57.91109499928351,Infinity
12,70.94309623572329,Infinity
12,86.90774891362983,Infinity
12,106.46500113468754,Infinity
12,130.42331217062937,Infinity
12,159.77307261790187,Infinity
12,195.72754524412383,Infinity
12,239.7730189423556,Infinity
12,293.73024906139125,Infinity
12,359.8297239374089,Infinity
12,440.8038690009431,Infinity
12,539.9999999999994,Infinity
14,1.5,4096.86
14,1.8375519294688092,4090.93
14,2.2510647289963623,4094.85
14,2.7576322240842983,4094.6
14,3.3781949427543108,4094.41
14,4.138405756786638,4100.66
14,5.0696903222054095,4097.3
14,6.210546155585266,4093.67
14,7.608134047500534,4098.42
14,9.32022759909463,4088.12
14,11.417601471869856,4093.58
14,13.986957076360246,4085.38
14,17.134506642042123,4083.54
14,20.990363827053752,4085.9
14,25.71392236710328,4084.46
14,31.50044510658787,4083.13
14,38.58913578982457,Infinity
14,47.273027284750675,Infinity
14,57.91109499928351,Infinity
14,70.94309623572329,Infinity
14,86.90774891362983,Infinity
14,106.46500113468754,Infinity
14,130.42331217062937,Infinity
14,159.77307261790187,Infinity
14,195.72754524412383,Infinity
14,239.7730189423556,Infinity
14,293.73024906139125,Infinity
14,359.8297239374089,Infinity
14,440.8038690009431,Infinity
14,539.9999999999994,Infinity
17,1.5,4087.97
17,1.8375519294688092,4092.79
17,2.2510647289963623,4097.39
17,2.7576322240842983,4098.96
17,3.3781949427543108,4093.56
17,4.138405756786638,4104.09
17,5.0696903222054095,4095.46
17,6.210546155585266,4097.8
17,7.608134047500534,4097.17
17,9.32022759909463,4088.88
17,11.417601471869856,4089.99
17,13.986957076360246,4092.68
17,17.134506642042123,4083.14
17,20.990363827053752,4084.78
17,25.71392236710328,4084.44
17,31.50044510658787,4102.09
17,38.58913578982457,Infinity
17,47.273027284750675,Infinity
17,57.91109499928351,Infinity
17,70.94309623572329,Infinity
17,86.90774891362983,Infinity
17,106.46500113468754,Infinity
17,130.42331217062937,Infinity
17,159.77307261790187,Infinity
17,195.72754524412383,Infinity
17,239.7730189423556,Infinity
17,293.73024906139125,Infinity
17,359.8297239374089,Infinity
17,440.8038690009431,Infinity
17,539.9999999999994,Infinity
20,1.5,4089.47
20,1.8375519294688092,4094.31
20,2.2510647289963623,4090.12
20,2.7576322240842983,4096.15
20,3.3781949427543108,4092.85
20,4.138405756786638,4095.11
20,5.0696903222054095,4099.08
20,6.210546155585266,4100.31
20,7.608134047500534,4096.0
20,9.32022759909463,4099.36
20,11.417601471869856,4092.14
20,13.986957076360246,4080.44
20,17.134506642042123,4089.86
20,20.990363827053752,4089.13
20,25.71392236710328,4092.23
20,31.50044510658787,Infinity
20,38.58913578982457,Infinity
20,47.273027284750675,Infinity
20,57.91109499928351,Infinity
20,70.94309623572329,Infinity
20,86.90774891362983,Infinity
20,106.46500113468754,Infinity
20,130.42331217062937,Infinity
20,159.77307261790187,Infinity
20,195.72754524412383,Infinity
20,239.7730189423556,Infinity
20,293.73024906139125,Infinity
20,359.8297239374089,Infinity
20,440.8038690009431,Infinity
20,539.9999999999994,Infinity
24,1.5,4100.53
24,1.8375519294688092,4092.92
24,2.2510647289963623,4092.31
24,2.7576322240842983,4096.98
24,3.3781949427543108,4086.88
24,4.138405756786638,4099.97
24,5.0696903222054095,4099.16
24,6.210546155585266,4099.85
24,7.608134047500534,4105.77
24,9.32022759909463,4099.46
24,11.417601471869856,4093.12
24,13.986957076360246,4090.37
24,17.134506642042123,4085.12
24,20.990363827053752,4090.56
24,25.71392236710328,Infinity
24,31.50044510658787,Infinity
24,38.58913578982457,Infinity
24,47.273027284750675,Infinity
24,57.91109499928351,Infinity
24,70.94309623572329,Infinity
24,86.90774891362983,Infinity
24,106.46500113468754,Infinity
24,130.42331217062937,Infinity
24,159.77307261790187,Infinity
24,195.72754524412383,Infinity
24,239.7730189423556,Infinity
24,293.73024906139125,Infinity
24,359.8297239374089,Infinity
24,440.8038690009431,Infinity
24,539.9999999999994,Infinity
28,1.5,4096.98
28,1.8375519294688092,4090.0
28,2.2510647289963623,4093.61
28,2.7576322240842983,4094.66
28,3.3781949427543108,4092.15
28,4.138405756786638,4098.18
28,5.0696903222054095,4099.6
28,6.210546155585266,4099.94
28,7.608134047500534,4104.69
28,9.32022759909463,4093.16
28,11.417601471869856,4090.48
28,13.986957076360246,4097.68
28,17.134506642042123,4089.0
28,20.990363827053752,Infinity
28,25.71392236710328,Infinity
28,31.50044510658787,Infinity
28,38.58913578982457,Infinity
28,47.273027284750675,Infinity
28,57.91109499928351,Infinity
28,70.94309623572329,Infinity
28,86.90774891362983,Infinity
28,106.46500113468754,Infinity
28,130.42331217062937,Infinity
28,159.77307261790187,Infinity
28,195.72754524412383,Infinity
28,239.7730189423556,Infinity
28,293.73024906139125,Infinity
28,359.8297239374089,Infinity
28,440.8038690009431,Infinity
28,539.9999999999994,Infinity
33,1.5,4093.11
33,1.8375519294688092,4090.22
33,2.2510647289963623,4092.13
33,2.7576322240842983,4096.29
33,3.3781949427543108,4100.37
33,4.138405756786638,4092.55
33,5.0696903222054095,4098.48
33,6.210546155585266,4106.07
33,7.608134047500534,4103.35
33,9.32022759909463,4097.53
33,11.417601471869856,4099.91
33,13.986957076360246,4093.77
33,17.134506642042123,Infinity
33,20.990363827053752,Infinity
33,25.71392236710328,Infinity
33,31.50044510658787,Infinity
33,38.58913578982457,Infinity
33,47.273027284750675,Infinity
33,57.91109499928351,Infinity
33,70.94309623572329,Infinity
33,86.90774891362983,Infinity
33,106.46500113468754,Infinity
33,130.42331217062937,Infinity
33,159.77307261790187,Infinity
33,195.72754524412383,Infinity
33,239.7730189423556,Infinity
33,293.73024906139125,Infinity
33,359.8297239374089,Infinity
33,440.8038690009431,Infinity
33,539.9999999999994,Infinity
39,1.5,4096.96
39,1.8375519294688092,4088.88
39,2.2510647289963623,4102.11
39,2.7576322240842983,4099.98
39,3.3781949427543108,4101.03
39,4.138405756786638,4100.97
39,5.0696903222054095,4108.14
39,6.210546155585266,4108.32
39,7.608134047500534,4104.7
39,9.32022759909463,4100.47
39,11.417601471869856,4098.35
39,13.986957076360246,Infinity
39,17.134506642042123,Infinity
39,20.990363827053752,Infinity
39,25.71392236710328,Infinity
39,31.50044510658787,Infinity
39,38.58913578982457,Infinity
39,47.273027284750675,Infinity
39,57.91109499928351,Infinity
39,70.94309623572329,Infinity
39,86.90774891362983,Infinity
39,106.46500113468754,Infinity
39,130.42331217062937,Infinity
39,159.77307261790187,Infinity
39,195.72754524412383,Infinity
39,239.7730189423556,Infinity
39,293.73024906139125,Infinity
39,359.8297239374089,Infinity
39,440.8038690009431,Infinity
39,539.9999999999994,Infinity
46,1.5,4098.5
46,1.8375519294688092,4094.57
46,2.2510647289963623,4098.38
46,2.7576322240842983,4096.31
46,3.3781949427543108,4102.96
46,4.138405756786638,4105.81
46,5.0696903222054095,4105.85
46,6.210546155585266,4108.79
46,7.608134047500534,4113.36
46,9.32022759909463,4107.3
46,11.417601471869856,4127.8
46,13.986957076360246,Infinity
46,17.134506642042123,Infinity
46,20.990363827053752,Infinity
46,25.71392236710328,Infinity
46,31.50044510658787,Infinity
46,38.58913578982457,Infinity
46,47.273027284750675,Infinity
46,57.91109499928351,Infinity
46,70.94309623572329,Infinity
46,86.90774891362983,Infinity
46,106.46500113468754,Infinity
46,130.42331217062937,Infinity
46,159.77307261790187,Infinity
46,195.72754524412383,Infinity
46,239.7730189423556,Infinity
46,293.73024906139125,Infinity
46,359.8297239374089,Infinity
46,440.8038690009431,Infinity
46,539.9999999999994,Infinity
55,1.5,4095.81
55,1.8375519294688092,4097.2
55,2.2510647289963623,4099.86
55,2.7576322240842983,4102.47
55,3.3781949427543108,4096.4
55,4.138405756786638,4102.6
55,5.0696903222054095,4112.45
55,6.210546155585266,4110.22
55,7.608134047500534,4119.07
55,9.32022759909463,4145.36
55,11.417601471869856,Infinity
55,13.986957076360246,Infinity
55,17.134506642042123,Infinity
55,20.990363827053752,Infinity
55,25.71392236710328,Infinity
55,31.50044510658787,Infinity
55,38.58913578982457,Infinity
55,47.273027284750675,Infinity
55,57.91109499928351,Infinity
55,70.94309623572329,Infinity
55,86.90774891362983,Infinity
55,106.46500113468754,Infinity
55,130.42331217062937,Infinity
55,159.77307261790187,Infinity
55,195.72754524412383,Infinity
55,239.7730189423556,Infinity
55,293.73024906139125,Infinity
55,359.8297239374089,Infinity
55,440.8038690009431,Infinity
55,539.9999999999994,Infinity
65,1.5,4103.66
65,1.8375519294688092,4098.33
65,2.2510647289963623,4096.23
65,2.7576322240842983,4107.4
65,3.3781949427543108,4118.67
65,4.138405756786638,4116.31
65,5.0696903222054095,4112.32
65,6.210546155585266,4131.41
65,7.608134047500534,4149.98
65,9.32022759909463,Infinity
65,11.417601471869856,Infinity
65,13.986957076360246,Infinity
65,17.134506642042123,Infinity
65,20.990363827053752,Infinity
65,25.71392236710328,Infinity
65,31.50044510658787,Infinity
65,38.58913578982457,Infinity
65,47.273027284750675,Infinity
65,57.91109499928351,Infinity
65,70.94309623572329,Infinity
65,86.90774891362983,Infinity
65,106.46500113468754,Infinity
65,130.42331217062937,Infinity
65,159.77307261790187,Infinity
65,195.72754524412383,Infinity
65,239.7730189423556,Infinity
65,293.73024906139125,Infinity
65,359.8297239374089,Infinity
65,440.8038690009431,Infinity
65,539.9999999999994,Infinity
77,1.5,4098.87
77,1.8375519294688092,4100.91
77,2.2510647289963623,4099.59
77,2.7576322240842983,4101.17
77,3.3781949427543108,4104.83
77,4.138405756786638,4140.18
77,5.0696903222054095,4122.27
77,6.210546155585266,4160.24
77,7.608134047500534,Infinity
77,9.32022759909463,Infinity
77,11.417601471869856,Infinity
77,13.986957076360246,Infinity
77,17.134506642042123,Infinity
77,20.990363827053752,Infinity
77,25.71392236710328,Infinity
77,31.50044510658787,Infinity
77,38.58913578982457,Infinity
77,47.273027284750675,Infinity
77,57.91109499928351,Infinity
77,70.94309623572329,Infinity
77,86.90774891362983,Infinity
77,106.46500113468754,Infinity
77,130.42331217062937,Infinity
77,159.77307261790187,Infinity
77,195.72754524412383,Infinity
77,239.7730189423556,Infinity
77,293.73024906139125,Infinity
77,359.8297239374089,Infinity
77,440.8038690009431,Infinity
77,539.9999999999994,Infinity
91,1.5,4098.91
91,1.8375519294688092,4103.67
91,2.2510647289963623,4103.34
91,2.7576322240842983,4112.26
91,3.3781949427543108,4107.81
91,4.138405756786638,4124.92
91,5.0696903222054095,4157.92
91,6.210546155585266,Infinity
91,7.608134047500534,Infinity
91,9.32022759909463,Infinity
91,11.417601471869856,Infinity
91,13.986957076360246,Infinity
91,17.134506642042123,Infinity
91,20.990363827053752,Infinity
91,25.71392236710328,Infinity
91,31.50044510658787,Infinity
91,38.58913578982457,Infinity
91,47.273027284750675,Infinity
91,57.91109499928351,Infinity
91,70.94309623572329,Infinity
91,86.90774891362983,Infinity
91,106.46500113468754,Infinity
91,130.42331217062937,Infinity
91,159.77307261790187,Infinity
91,195.72754524412383,Infinity
91,239.7730189423556,Infinity
91,293.73024906139125,Infinity
91,359.8297239374089,Infinity
91,440.8038690009431,Infinity
91,539.9999999999994,Infinity
108,1.5,4103.46
108,1.8375519294688092,4107.15
108,2.2510647289963623,4100.96
108,2.7576322240842983,4120.14
108,3.3781949427543108,4122.75
108,4.138405756786638,4142.47
108,5.0696903222054095,Infinity
108,6.210546155585266,Infinity
108,7.608134047500534,Infinity
108,9.32022759909463,Infinity
108,11.417601471869856,Infinity
108,13.986957076360246,Infinity
108,17.134506642042123,Infinity
108,20.990363827053752,Infinity
108,25.71392236710328,Infinity
108,31.50044510658787,Infinity
108,38.58913578982457,Infinity
108,47.273027284750675,Infinity
108,57.91109499928351,Infinity
108,70.94309623572329,Infinity
108,86.90774891362983,Infinity
108,106.46500113468754,Infinity
108,130.42331217062937,Infinity
108,159.77307261790187,Infinity
108,195.72754524412383,Infinity
108,239.7730189423556,Infinity
108,293.73024906139125,Infinity
108,359.8297239374089,Infinity
108,440.8038690009431,Infinity
108,539.9999999999994,Infinity
128,1.5,4103.02
128,1.8375519294688092,4110.12
128,2.2510647289963623,4114.49
128,2.7576322240842983,4128.8
128,3.3781949427543108,4147.57
128,4.138405756786638,4238.55
128,5.0696903222054095,Infinity
128,6.210546155585266,Infinity
128,7.608134047500534,Infinity
128,9.32022759909463,Infinity
128,11.417601471869856,Infinity
128,13.986957076360246,Infinity
128,17.134506642042123,Infinity
128,20.990363827053752,Infinity
128,25.71392236710328,Infinity
128,31.50044510658787,Infinity
128,38.58913578982457,Infinity
128,47.273027284750675,Infinity
128,57.91109499928351,Infinity
128,70.94309623572329,Infinity
128,86.90774891362983,Infinity
128,106.46500113468754,Infinity
128,130.42331217062937,Infinity
128,159.77307261790187,Infinity
128,195.72754524412383,Infinity
128,239.7730189423556,Infinity
128,293.73024906139125,Infinity
128,359.8297239374089,Infinity
128,440.8038690009431,Infinity
128,539.9999999999994,Infinity
152,1.5,4105.52
152,1.8375519294688092,4108.92
152,2.2510647289963623,4110.06
152,2.7576322240842983,4131.55
152,3.3781949427543108,4213.21
152,4.138405756786638,Infinity
152,5.0696903222054095,Infinity
152,6.210546155585266,Infinity
152,7.608134047500534,Infinity
152,9.32022759909463,Infinity
152,11.417601471869856,Infinity
152,13.986957076360246,Infinity
152,17.134506642042123,Infinity
152,20.990363827053752,Infinity
152,25.71392236710328,Infinity
152,31.50044510658787,Infinity
152,38.58913578982457,Infinity
152,47.273027284750675,Infinity
152,57.91109499928351,Infinity
152,70.94309623572329,Infinity
152,86.90774891362983,Infinity
152,106.46500113468754,Infinity
152,130.42331217062937,Infinity
152,159.77307261790187,Infinity
152,195.72754524412383,Infinity
152,239.7730189423556,Infinity
152,293.73024906139125,Infinity
152,359.8297239374089,Infinity
152,440.8038690009431,Infinity
152,539.9999999999994,Infinity
181,1.5,4103.2
181,1.8375519294688092,4123.2
181,2.2510647289963623,4133.04
181,2.7576322240842983,4188.53
181,3.3781949427543108,Infinity
181,4.138405756786638,Infinity
181,5.0696903222054095,Infinity
181,6.210546155585266,Infinity
181,7.608134047500534,Infinity
181,9.32022759909463,Infinity
181,11.417601471869856,Infinity
181,13.986957076360246,Infinity
181,17.134506642042123,Infinity
181,20.990363827053752,Infinity
181,25.71392236710328,Infinity
181,31.50044510658787,Infinity
181,38.58913578982457,Infinity
181,47.273027284750675,Infinity
181,57.91109499928351,Infinity
181,70.94309623572329,Infinity
181,86.90774891362983,Infinity
181,106.46500113468754,Infinity
181,130.42331217062937,Infinity
181,159.77307261790187,Infinity
181,195.72754524412383,Infinity
181,239.7730189423556,Infinity
181,293.73024906139125,Infinity
181,359.8297239374089,Infinity
181,440.8038690009431,Infinity
181,539.9999999999994,Infinity
215,1.5,4113.42
215,1.8375519294688092,4133.16
215,2.2510647289963623,4187.06
215,2.7576322240842983,Infinity
215,3.3781949427543108,Infinity
215,4.138405756786638,Infinity
215,5.0696903222054095,Infinity
215,6.210546155585266,Infinity
215,7.608134047500534,Infinity
215,9.32022759909463,Infinity
215,11.417601471869856,Infinity
215,13.986957076360246,Infinity
215,17.134506642042123,Infinity
215,20.990363827053752,Infinity
215,25.71392236710328,Infinity
215,31.50044510658787,Infinity
215,38.58913578982457,Infinity
215,47.273027284750675,Infinity
215,57.91109499928351,Infinity
215,70.94309623572329,Infinity
215,86.90774891362983,Infinity
215,106.46500113468754,Infinity
215,130.42331217062937,Infinity
215,159.77307261790187,Infinity
215,195.72754524412383,Infinity
215,239.7730189423556,Infinity
215,293.73024906139125,Infinity
215,359.8297239374089,Infinity
215,440.8038690009431,Infinity
215,539.9999999999994,Infinity
255,1.5,4128.75
255,1.8375519294688092,4169.98
255,2.2510647289963623,Infinity
255,2.7576322240842983,Infinity
255,3.3781949427543108,Infinity
255,4.138405756786638,Infinity
255,5.0696903222054095,Infinity
255,6.210546155585266,Infinity
255,7.608134047500534,Infinity
255,9.32022759909463,Infinity
255,11.417601471869856,Infinity
255,13.986957076360246,Infinity
255,17.134506642042123,Infinity
255,20.990363827053752,Infinity
255,25.71392236710328,Infinity
255,31.50044510658787,Infinity
255,38.58913578982457,Infinity
255,47.273027284750675,Infinity
255,57.91109499928351,Infinity
255,70.94309623572329,Infinity
255,86.90774891362983,Infinity
255,106.46500113468754,Infinity
255,130.42331217062937,Infinity
255,159.77307261790187,Infinity
255,195.72754524412383,Infinity
255,239.7730189423556,Infinity
255,293.73024906139125,Infinity
255,359.8297239374089,Infinity
255,440.8038690009431,Infinity
255,539.9999999999994,Infinity
303,1.5,4161.75
303,1.8375519294688092,Infinity
303,2.2510647289963623,Infinity
303,2.7576322240842983,Infinity
303,3.3781949427543108,Infinity
303,4.138405756786638,Infinity
303,5.0696903222054095,Infinity
303,6.210546155585266,Infinity
303,7.608134047500534,Infinity
303,9.32022759909463,Infinity
303,11.417601471869856,Infinity
303,13.986957076360246,Infinity
303,17.134506642042123,Infinity
303,20.990363827053752,Infinity
303,25.71392236710328,Infinity
303,31.50044510658787,Infinity
303,38.58913578982457,Infinity
303,47.273027284750675,Infinity
303,57.91109499928351,Infinity
303,70.94309623572329,Infinity
303,86.90774891362983,Infinity
303,106.46500113468754,Infinity
303,130.42331217062937,Infinity
303,159.77307261790187,Infinity
303,195.72754524412383,Infinity
303,239.7730189423556,Infinity
303,293.73024906139125,Infinity
303,359.8297239374089,Infinity
303,440.8038690009431,Infinity
303,539.9999999999994,Infinity
360,1.5,4420.18
360,1.8375519294688092,Infinity
360,2.2510647289963623,Infinity
360,2.7576322240842983,Infinity
360,3.3781949427543108,Infinity
360,4.138405756786638,Infinity
360,5.0696903222054095,Infinity
360,6.210546155585266,Infinity
360,7.608134047500534,Infinity
360,9.32022759909463,Infinity
360,11.417601471869856,Infinity
360,13.986957076360246,Infinity
360,17.134506642042123,Infinity
360,20.990363827053752,Infinity
360,25.71392236710328,Infinity
360,31.50044510658787,Infinity
360,38.58913578982457,Infinity
360,47.273027284750675,Infinity
360,57.91109499928351,Infinity
360,70.94309623572329,Infinity
360,86.90774891362983,Infinity
360,106.46500113468754,Infinity
360,130.42331217062937,Infinity
360,159.77307261790187,Infinity
360,195.72754524412383,Infinity
360,239.7730189423556,Infinity
360,293.73024906139125,Infinity
360,359.8297239374089,Infinity
360,440.8038690009431,Infinity
360,539.9999999999994,Infinity
