firstPhaseRestarts,firstPhaseTime,result
1,0.5,6.637045437E7
1,0.5678236176667799,6.637721808E7
1,0.6448473215603789,6.638345679E7
1,0.7323190779422953,6.638793795E7
1,0.8316561362471894,6.637790834E7
1,0.944467991877311,6.638998264E7
1,1.0725824638365073,6.637622175E7
1,1.2180753097231876,6.638370274E7
1,1.3833038579152075,6.637667576E7
1,1.5709452018676529,6.63845114E7
1,1.784039575361521,6.638061202E7
1,2.0260396114849692,6.639288843E7
1,2.300866283459185,6.639999372E7
1,2.6129724336826263,6.638136723E7
1,2.967414920314478,6.637295182E7
1,3.369936550342693,6.639504879E7
1,3.827059126646193,6.636514867E7
1,4.346189116633817,6.638016001E7
1,4.935737654542001,6.637669025E7
1,5.605256821712372,6.636761697E7
1,6.365594412912231,6.637645133E7
1,7.22906969627853,6.637963622E7
1,8.20967301461233,6.637367934E7
1,9.323292462037024,6.638771663E7
1,10.587971308718565,6.638933766E7
1,12.024200344537292,6.639034869E7
1,13.655249878370613,6.637295413E7
1,15.507546772160516,6.638155782E7
1,17.61110261860996,6.640127585E7
1,20.000000000000014,Infinity
2,0.5,6.637401005E7
2,0.5678236176667799,6.637761085E7
2,0.6448473215603789,6.6374228E7
2,0.7323190779422953,6.638314868E7
2,0.8316561362471894,6.637366382E7
2,0.944467991877311,6.638767502E7
2,1.0725824638365073,6.638252494E7
2,1.2180753097231876,6.637688582E7
2,1.3833038579152075,6.638691062E7
2,1.5709452018676529,6.638356749E7
2,1.784039575361521,6.636036635E7
2,2.0260396114849692,6.639200848E7
2,2.300866283459185,6.636477202E7
2,2.6129724336826263,6.639137156E7
2,2.967414920314478,6.637148879E7
2,3.369936550342693,6.639388441E7
2,3.827059126646193,6.637890326E7
2,4.346189116633817,6.638955088E7
2,4.935737654542001,6.639025959E7
2,5.605256821712372,6.639044844E7
2,6.365594412912231,6.639644165E7
2,7.22906969627853,6.639935726E7
2,8.20967301461233,6.640671621E7
2,9.323292462037024,6.643783552E7
2,10.587971308718565,Infinity
2,12.024200344537292,Infinity
2,13.655249878370613,Infinity
2,15.507546772160516,Infinity
2,17.61110261860996,Infinity
2,20.000000000000014,Infinity
3,0.5,6.637078448E7
3,0.5678236176667799,6.637400756E7
3,0.6448473215603789,6.638600641E7
3,0.7323190779422953,6.636985792E7
3,0.8316561362471894,6.638638172E7
3,0.944467991877311,6.637673833E7
3,1.0725824638365073,6.638393278E7
3,1.2180753097231876,6.638557809E7
3,1.3833038579152075,6.637849173E7
3,1.5709452018676529,6.637421061E7
3,1.784039575361521,6.638889081E7
3,2.0260396114849692,6.638269332E7
3,2.300866283459185,6.638834823E7
3,2.6129724336826263,6.637672042E7
3,2.967414920314478,6.638452904E7
3,3.369936550342693,6.638517638E7
3,3.827059126646193,6.638743304E7
3,4.346189116633817,6.640169697E7
3,4.935737654542001,6.641012505E7
3,5.605256821712372,6.641599717E7
3,6.365594412912231,6.643630969E7
3,7.22906969627853,Infinity
3,8.20967301461233,Infinity
3,9.323292462037024,Infinity
3,10.587971308718565,Infinity
3,12.024200344537292,Infinity
3,13.655249878370613,Infinity
3,15.507546772160516,Infinity
3,17.61110261860996,Infinity
3,20.000000000000014,Infinity
4,0.5,6.635537082E7
4,0.5678236176667799,6.634838929E7
4,0.6448473215603789,6.633984954E7
4,0.7323190779422953,6.634802414E7
4,0.8316561362471894,6.634854422E7
4,0.944467991877311,6.634975161E7
4,1.0725824638365073,6.635465282E7
4,1.2180753097231876,6.635162065E7
4,1.3833038579152075,6.635328464E7
4,1.5709452018676529,6.63469124E7
4,1.784039575361521,6.635515834E7
4,2.0260396114849692,6.636308988E7
4,2.300866283459185,6.636569096E7
4,2.6129724336826263,6.637667006E7
4,2.967414920314478,6.63794507E7
4,3.369936550342693,6.638966296E7
4,3.827059126646193,6.640572219E7
4,4.346189116633817,6.642320439E7
4,4.935737654542001,6.647287135E7
4,5.605256821712372,Infinity
4,6.365594412912231,Infinity
4,7.22906969627853,Infinity
4,8.20967301461233,Infinity
4,9.323292462037024,Infinity
4,10.587971308718565,Infinity
4,12.024200344537292,Infinity
4,13.655249878370613,Infinity
4,15.507546772160516,Infinity
4,17.61110261860996,Infinity
4,20.000000000000014,Infinity
5,0.5,6.635376293E7
5,0.5678236176667799,6.635522324E7
5,0.6448473215603789,6.635733659E7
5,0.7323190779422953,6.635102613E7
5,0.8316561362471894,6.635255401E7
5,0.944467991877311,6.635597105E7
5,1.0725824638365073,6.635628715E7
5,1.2180753097231876,6.636063004E7
5,1.3833038579152075,6.636605365E7
5,1.5709452018676529,6.635348167E7
5,1.784039575361521,6.637730781E7
5,2.0260396114849692,6.637724819E7
5,2.300866283459185,6.637638232E7
5,2.6129724336826263,6.63865073E7
5,2.967414920314478,6.641031181E7
5,3.369936550342693,6.643382825E7
5,3.827059126646193,6.647756712E7
5,4.346189116633817,Infinity
5,4.935737654542001,Infinity
5,5.605256821712372,Infinity
5,6.365594412912231,Infinity
5,7.22906969627853,Infinity
5,8.20967301461233,Infinity
5,9.323292462037024,Infinity
5,10.587971308718565,Infinity
5,12.024200344537292,Infinity
5,13.655249878370613,Infinity
5,15.507546772160516,Infinity
5,17.61110261860996,Infinity
5,20.000000000000014,Infinity
6,0.5,6.635217874E7
6,0.5678236176667799,6.634673921E7
6,0.6448473215603789,6.635457875E7
6,0.7323190779422953,6.635253456E7
6,0.8316561362471894,6.635108205E7
6,0.944467991877311,6.635863832E7
6,1.0725824638365073,6.635605958E7
6,1.2180753097231876,6.636658435E7
6,1.3833038579152075,6.636519029E7
6,1.5709452018676529,6.638006709E7
6,1.784039575361521,6.639150869E7
6,2.0260396114849692,6.639908944E7
6,2.300866283459185,6.640062922E7
6,2.6129724336826263,6.642191202E7
6,2.967414920314478,6.645828185E7
6,3.369936550342693,Infinity
6,3.827059126646193,Infinity
6,4.346189116633817,Infinity
6,4.935737654542001,Infinity
6,5.605256821712372,Infinity
6,6.365594412912231,Infinity
6,7.22906969627853,Infinity
6,8.20967301461233,Infinity
6,9.323292462037024,Infinity
6,10.587971308718565,Infinity
6,12.024200344537292,Infinity
6,13.655249878370613,Infinity
6,15.507546772160516,Infinity
6,17.61110261860996,Infinity
6,20.000000000000014,Infinity
7,0.5,6.634538747E7
7,0.5678236176667799,6.635454328E7
7,0.6448473215603789,6.636315294E7
7,0.7323190779422953,6.635546755E7
7,0.8316561362471894,6.63515132E7
7,0.944467991877311,6.63636235E7
7,1.0725824638365073,6.636251824E7
7,1.2180753097231876,6.63770497E7
7,1.3833038579152075,6.636882309E7
7,1.5709452018676529,6.638923579E7
7,1.784039575361521,6.63969451E7
7,2.0260396114849692,6.64134752E7
7,2.300866283459185,6.642579187E7
7,2.6129724336826263,6.649018728E7
7,2.967414920314478,Infinity
7,3.369936550342693,Infinity
7,3.827059126646193,Infinity
7,4.346189116633817,Infinity
7,4.935737654542001,Infinity
7,5.605256821712372,Infinity
7,6.365594412912231,Infinity
7,7.22906969627853,Infinity
7,8.20967301461233,Infinity
7,9.323292462037024,Infinity
7,10.587971308718565,Infinity
7,12.024200344537292,Infinity
7,13.655249878370613,Infinity
7,15.507546772160516,Infinity
7,17.61110261860996,Infinity
7,20.000000000000014,Infinity
8,0.5,6.634337289E7
8,0.5678236176667799,6.635415614E7
8,0.6448473215603789,6.635766492E7
8,0.7323190779422953,6.636009162E7
8,0.8316561362471894,6.63628547E7
8,0.944467991877311,6.636968487E7
8,1.0725824638365073,6.6364661E7
8,1.2180753097231876,6.637433174E7
8,1.3833038579152075,6.637720059E7
8,1.5709452018676529,6.639096562E7
8,1.784039575361521,6.641572127E7
8,2.0260396114849692,6.644115367E7
8,2.300866283459185,6.650262915E7
8,2.6129724336826263,Infinity
8,2.967414920314478,Infinity
8,3.369936550342693,Infinity
8,3.827059126646193,Infinity
8,4.346189116633817,Infinity
8,4.935737654542001,Infinity
8,5.605256821712372,Infinity
8,6.365594412912231,Infinity
8,7.22906969627853,Infinity
8,8.20967301461233,Infinity
8,9.323292462037024,Infinity
8,10.587971308718565,Infinity
8,12.024200344537292,Infinity
8,13.655249878370613,Infinity
8,15.507546772160516,Infinity
8,17.61110261860996,Infinity
8,20.000000000000014,Infinity
9,0.5,6.634627023E7
9,0.5678236176667799,6.634911199E7
9,0.6448473215603789,6.636473029E7
9,0.7323190779422953,6.637179781E7
9,0.8316561362471894,6.636455E7
9,0.944467991877311,6.63646342E7
9,1.0725824638365073,6.636885166E7
9,1.2180753097231876,6.638549416E7
9,1.3833038579152075,6.639291358E7
9,1.5709452018676529,6.642775989E7
9,1.784039575361521,6.643872126E7
9,2.0260396114849692,6.651330603E7
9,2.300866283459185,Infinity
9,2.6129724336826263,Infinity
9,2.967414920314478,Infinity
9,3.369936550342693,Infinity
9,3.827059126646193,Infinity
9,4.346189116633817,Infinity
9,4.935737654542001,Infinity
9,5.605256821712372,Infinity
9,6.365594412912231,Infinity
9,7.22906969627853,Infinity
9,8.20967301461233,Infinity
9,9.323292462037024,Infinity
9,10.587971308718565,Infinity
9,12.024200344537292,Infinity
9,13.655249878370613,Infinity
9,15.507546772160516,Infinity
9,17.61110261860996,Infinity
9,20.000000000000014,Infinity
10,0.5,6.636168844E7
10,0.5678236176667799,6.6354536E7
10,0.6448473215603789,6.635574109E7
10,0.7323190779422953,6.636709741E7
10,0.8316561362471894,6.636622444E7
10,0.944467991877311,6.637796572E7
10,1.0725824638365073,6.639023646E7
10,1.2180753097231876,6.640090528E7
10,1.3833038579152075,6.64076395E7
10,1.5709452018676529,6.644937863E7
10,1.784039575361521,6.649826284E7
10,2.0260396114849692,Infinity
10,2.300866283459185,Infinity
10,2.6129724336826263,Infinity
10,2.967414920314478,Infinity
10,3.369936550342693,Infinity
10,3.827059126646193,Infinity
10,4.346189116633817,Infinity
10,4.935737654542001,Infinity
10,5.605256821712372,Infinity
10,6.365594412912231,Infinity
10,7.22906969627853,Infinity
10,8.20967301461233,Infinity
10,9.323292462037024,Infinity
10,10.587971308718565,Infinity
10,12.024200344537292,Infinity
10,13.655249878370613,Infinity
10,15.507546772160516,Infinity
10,17.61110261860996,Infinity
10,20.000000000000014,Infinity
11,0.5,6.635578756E7
11,0.5678236176667799,6.635252967E7
11,0.6448473215603789,6.636028027E7
11,0.7323190779422953,6.636712964E7
11,0.8316561362471894,6.637131299E7
11,0.944467991877311,6.639337095E7
11,1.0725824638365073,6.639762361E7
11,1.2180753097231876,6.641638281E7
11,1.3833038579152075,6.644104983E7
11,1.5709452018676529,6.647757578E7
11,1.784039575361521,6.664184781E7
11,2.0260396114849692,Infinity
11,2.300866283459185,Infinity
11,2.6129724336826263,Infinity
11,2.967414920314478,Infinity
11,3.369936550342693,Infinity
11,3.827059126646193,Infinity
11,4.346189116633817,Infinity
11,4.935737654542001,Infinity
11,5.605256821712372,Infinity
11,6.365594412912231,Infinity
11,7.22906969627853,Infinity
11,8.20967301461233,Infinity
11,9.323292462037024,Infinity
11,10.587971308718565,Infinity
11,12.024200344537292,Infinity
11,13.655249878370613,Infinity
11,15.507546772160516,Infinity
11,17.61110261860996,Infinity
11,20.000000000000014,Infinity
12,0.5,6.635810552E7
12,0.5678236176667799,6.636505754E7
12,0.6448473215603789,6.63694166E7
12,0.7323190779422953,6.637114335E7
12,0.8316561362471894,6.638065022E7
12,0.944467991877311,6.639685784E7
12,1.0725824638365073,6.640673159E7
12,1.2180753097231876,6.642827543E7
12,1.3833038579152075,6.64934804E7
12,1.5709452018676529,6.657195827E7
12,1.784039575361521,Infinity
12,2.0260396114849692,Infinity
12,2.300866283459185,Infinity
12,2.6129724336826263,Infinity
12,2.967414920314478,Infinity
12,3.369936550342693,Infinity
12,3.827059126646193,Infinity
12,4.346189116633817,Infinity
12,4.935737654542001,Infinity
12,5.605256821712372,Infinity
12,6.365594412912231,Infinity
12,7.22906969627853,Infinity
12,8.20967301461233,Infinity
12,9.323292462037024,Infinity
12,10.587971308718565,Infinity
12,12.024200344537292,Infinity
12,13.655249878370613,Infinity
12,15.507546772160516,Infinity
12,17.61110261860996,Infinity
12,20.000000000000014,Infinity
13,0.5,6.635838728E7
13,0.5678236176667799,6.63654785E7
13,0.6448473215603789,6.636955906E7
13,0.7323190779422953,6.638156913E7
13,0.8316561362471894,6.637767466E7
13,0.944467991877311,6.639620718E7
13,1.0725824638365073,6.642816135E7
13,1.2180753097231876,6.646413267E7
13,1.3833038579152075,6.653154949E7
13,1.5709452018676529,Infinity
13,1.784039575361521,Infinity
13,2.0260396114849692,Infinity
13,2.300866283459185,Infinity
13,2.6129724336826263,Infinity
13,2.967414920314478,Infinity
13,3.369936550342693,Infinity
13,3.827059126646193,Infinity
13,4.346189116633817,Infinity
13,4.935737654542001,Infinity
13,5.605256821712372,Infinity
13,6.365594412912231,Infinity
13,7.22906969627853,Infinity
13,8.20967301461233,Infinity
13,9.323292462037024,Infinity
13,10.587971308718565,Infinity
13,12.024200344537292,Infinity
13,13.655249878370613,Infinity
13,15.507546772160516,Infinity
13,17.61110261860996,Infinity
13,20.000000000000014,Infinity
14,0.5,6.636126726E7
14,0.5678236176667799,6.637621131E7
14,0.6448473215603789,6.638422411E7
14,0.7323190779422953,6.638159751E7
14,0.8316561362471894,6.639222458E7
14,0.944467991877311,6.640764526E7
14,1.0725824638365073,6.644327733E7
14,1.2180753097231876,6.649964983E7
14,1.3833038579152075,6.664272961E7
14,1.5709452018676529,Infinity
14,1.784039575361521,Infinity
14,2.0260396114849692,Infinity
14,2.300866283459185,Infinity
14,2.6129724336826263,Infinity
14,2.967414920314478,Infinity
14,3.369936550342693,Infinity
14,3.827059126646193,Infinity
14,4.346189116633817,Infinity
14,4.935737654542001,Infinity
14,5.605256821712372,Infinity
14,6.365594412912231,Infinity
14,7.22906969627853,Infinity
14,8.20967301461233,Infinity
14,9.323292462037024,Infinity
14,10.587971308718565,Infinity
14,12.024200344537292,Infinity
14,13.655249878370613,Infinity
14,15.507546772160516,Infinity
14,17.61110261860996,Infinity
14,20.000000000000014,Infinity
15,0.5,6.636711195E7
15,0.5678236176667799,6.638270697E7
15,0.6448473215603789,6.637751409E7
15,0.7323190779422953,6.638614507E7
15,0.8316561362471894,6.639573247E7
15,0.944467991877311,6.643148471E7
15,1.0725824638365073,6.64716889E7
15,1.2180753097231876,6.655126315E7
15,1.3833038579152075,Infinity
15,1.5709452018676529,Infinity
15,1.784039575361521,Infinity
15,2.0260396114849692,Infinity
15,2.300866283459185,Infinity
15,2.6129724336826263,Infinity
15,2.967414920314478,Infinity
15,3.369936550342693,Infinity
15,3.827059126646193,Infinity
15,4.346189116633817,Infinity
15,4.935737654542001,Infinity
15,5.605256821712372,Infinity
15,6.365594412912231,Infinity
15,7.22906969627853,Infinity
15,8.20967301461233,Infinity
15,9.323292462037024,Infinity
15,10.587971308718565,Infinity
15,12.024200344537292,Infinity
15,13.655249878370613,Infinity
15,15.507546772160516,Infinity
15,17.61110261860996,Infinity
15,20.000000000000014,Infinity
16,0.5,6.637420621E7
16,0.5678236176667799,6.637672733E7
16,0.6448473215603789,6.637450443E7
16,0.7323190779422953,6.640916571E7
16,0.8316561362471894,6.641734383E7
16,0.944467991877311,6.645824599E7
16,1.0725824638365073,6.649646574E7
16,1.2180753097231876,6.669940167E7
16,1.3833038579152075,Infinity
16,1.5709452018676529,Infinity
16,1.784039575361521,Infinity
16,2.0260396114849692,Infinity
16,2.300866283459185,Infinity
16,2.6129724336826263,Infinity
16,2.967414920314478,Infinity
16,3.369936550342693,Infinity
16,3.827059126646193,Infinity
16,4.346189116633817,Infinity
16,4.935737654542001,Infinity
16,5.605256821712372,Infinity
16,6.365594412912231,Infinity
16,7.22906969627853,Infinity
16,8.20967301461233,Infinity
16,9.323292462037024,Infinity
16,10.587971308718565,Infinity
16,12.024200344537292,Infinity
16,13.655249878370613,Infinity
16,15.507546772160516,Infinity
16,17.61110261860996,Infinity
16,20.000000000000014,Infinity
17,0.5,6.637088904E7
17,0.5678236176667799,6.638848301E7
17,0.6448473215603789,6.639424979E7
17,0.7323190779422953,6.640489701E7
17,0.8316561362471894,6.643934894E7
17,0.944467991877311,6.646943377E7
17,1.0725824638365073,6.657007856E7
17,1.2180753097231876,Infinity
17,1.3833038579152075,Infinity
17,1.5709452018676529,Infinity
17,1.784039575361521,Infinity
17,2.0260396114849692,Infinity
17,2.300866283459185,Infinity
17,2.6129724336826263,Infinity
17,2.967414920314478,Infinity
17,3.369936550342693,Infinity
17,3.827059126646193,Infinity
17,4.346189116633817,Infinity
17,4.935737654542001,Infinity
17,5.605256821712372,Infinity
17,6.365594412912231,Infinity
17,7.22906969627853,Infinity
17,8.20967301461233,Infinity
17,9.323292462037024,Infinity
17,10.587971308718565,Infinity
17,12.024200344537292,Infinity
17,13.655249878370613,Infinity
17,15.507546772160516,Infinity
17,17.61110261860996,Infinity
17,20.000000000000014,Infinity
18,0.5,6.637717643E7
18,0.5678236176667799,6.63847165E7
18,0.6448473215603789,6.639794224E7
18,0.7323190779422953,6.641907107E7
18,0.8316561362471894,6.645309911E7
18,0.944467991877311,6.650458505E7
18,1.0725824638365073,6.670116868E7
18,1.2180753097231876,Infinity
18,1.3833038579152075,Infinity
18,1.5709452018676529,Infinity
18,1.784039575361521,Infinity
18,2.0260396114849692,Infinity
18,2.300866283459185,Infinity
18,2.6129724336826263,Infinity
18,2.967414920314478,Infinity
18,3.369936550342693,Infinity
18,3.827059126646193,Infinity
18,4.346189116633817,Infinity
18,4.935737654542001,Infinity
18,5.605256821712372,Infinity
18,6.365594412912231,Infinity
18,7.22906969627853,Infinity
18,8.20967301461233,Infinity
18,9.323292462037024,Infinity
18,10.587971308718565,Infinity
18,12.024200344537292,Infinity
18,13.655249878370613,Infinity
18,15.507546772160516,Infinity
18,17.61110261860996,Infinity
18,20.000000000000014,Infinity
19,0.5,6.638492707E7
19,0.5678236176667799,6.638870876E7
19,0.6448473215603789,6.641125377E7
19,0.7323190779422953,6.643803734E7
19,0.8316561362471894,6.647124002E7
19,0.944467991877311,6.654811881E7
19,1.0725824638365073,Infinity
19,1.2180753097231876,Infinity
19,1.3833038579152075,Infinity
19,1.5709452018676529,Infinity
19,1.784039575361521,Infinity
19,2.0260396114849692,Infinity
19,2.300866283459185,Infinity
19,2.6129724336826263,Infinity
19,2.967414920314478,Infinity
19,3.369936550342693,Infinity
19,3.827059126646193,Infinity
19,4.346189116633817,Infinity
19,4.935737654542001,Infinity
19,5.605256821712372,Infinity
19,6.365594412912231,Infinity
19,7.22906969627853,Infinity
19,8.20967301461233,Infinity
19,9.323292462037024,Infinity
19,10.587971308718565,Infinity
19,12.024200344537292,Infinity
19,13.655249878370613,Infinity
19,15.507546772160516,Infinity
19,17.61110261860996,Infinity
19,20.000000000000014,Infinity
20,0.5,6.638785423E7
20,0.5678236176667799,6.639548733E7
20,0.6448473215603789,6.64132191E7
20,0.7323190779422953,6.644837204E7
20,0.8316561362471894,6.649239479E7
20,0.944467991877311,6.66305252E7
20,1.0725824638365073,Infinity
20,1.2180753097231876,Infinity
20,1.3833038579152075,Infinity
20,1.5709452018676529,Infinity
20,1.784039575361521,Infinity
20,2.0260396114849692,Infinity
20,2.300866283459185,Infinity
20,2.6129724336826263,Infinity
20,2.967414920314478,Infinity
20,3.369936550342693,Infinity
20,3.827059126646193,Infinity
20,4.346189116633817,Infinity
20,4.935737654542001,Infinity
20,5.605256821712372,Infinity
20,6.365594412912231,Infinity
20,7.22906969627853,Infinity
20,8.20967301461233,Infinity
20,9.323292462037024,Infinity
20,10.587971308718565,Infinity
20,12.024200344537292,Infinity
20,13.655249878370613,Infinity
20,15.507546772160516,Infinity
20,17.61110261860996,Infinity
20,20.000000000000014,Infinity
21,0.5,6.638926246E7
21,0.5678236176667799,6.640748883E7
21,0.6448473215603789,6.643727104E7
21,0.7323190779422953,6.645607682E7
21,0.8316561362471894,6.653885491E7
21,0.944467991877311,6.685510683E7
21,1.0725824638365073,Infinity
21,1.2180753097231876,Infinity
21,1.3833038579152075,Infinity
21,1.5709452018676529,Infinity
21,1.784039575361521,Infinity
21,2.0260396114849692,Infinity
21,2.300866283459185,Infinity
21,2.6129724336826263,Infinity
21,2.967414920314478,Infinity
21,3.369936550342693,Infinity
21,3.827059126646193,Infinity
21,4.346189116633817,Infinity
21,4.935737654542001,Infinity
21,5.605256821712372,Infinity
21,6.365594412912231,Infinity
21,7.22906969627853,Infinity
21,8.20967301461233,Infinity
21,9.323292462037024,Infinity
21,10.587971308718565,Infinity
21,12.024200344537292,Infinity
21,13.655249878370613,Infinity
21,15.507546772160516,Infinity
21,17.61110261860996,Infinity
21,20.000000000000014,Infinity
23,0.5,6.639544185E7
23,0.5678236176667799,6.641485272E7
23,0.6448473215603789,6.645277826E7
23,0.7323190779422953,6.651417841E7
23,0.8316561362471894,6.67005599E7
23,0.944467991877311,Infinity
23,1.0725824638365073,Infinity
23,1.2180753097231876,Infinity
23,1.3833038579152075,Infinity
23,1.5709452018676529,Infinity
23,1.784039575361521,Infinity
23,2.0260396114849692,Infinity
23,2.300866283459185,Infinity
23,2.6129724336826263,Infinity
23,2.967414920314478,Infinity
23,3.369936550342693,Infinity
23,3.827059126646193,Infinity
23,4.346189116633817,Infinity
23,4.935737654542001,Infinity
23,5.605256821712372,Infinity
23,6.365594412912231,Infinity
23,7.22906969627853,Infinity
23,8.20967301461233,Infinity
23,9.323292462037024,Infinity
23,10.587971308718565,Infinity
23,12.024200344537292,Infinity
23,13.655249878370613,Infinity
23,15.507546772160516,Infinity
23,17.61110261860996,Infinity
23,20.000000000000014,Infinity
25,0.5,6.641486767E7
25,0.5678236176667799,6.643736833E7
25,0.6448473215603789,6.648191379E7
25,0.7323190779422953,6.661434134E7
25,0.8316561362471894,Infinity
25,0.944467991877311,Infinity
25,1.0725824638365073,Infinity
25,1.2180753097231876,Infinity
25,1.3833038579152075,Infinity
25,1.5709452018676529,Infinity
25,1.784039575361521,Infinity
25,2.0260396114849692,Infinity
25,2.300866283459185,Infinity
25,2.6129724336826263,Infinity
25,2.967414920314478,Infinity
25,3.369936550342693,Infinity
25,3.827059126646193,Infinity
25,4.346189116633817,Infinity
25,4.935737654542001,Infinity
25,5.605256821712372,Infinity
25,6.365594412912231,Infinity
25,7.22906969627853,Infinity
25,8.20967301461233,Infinity
25,9.323292462037024,Infinity
25,10.587971308718565,Infinity
25,12.024200344537292,Infinity
25,13.655249878370613,Infinity
25,15.507546772160516,Infinity
25,17.61110261860996,Infinity
25,20.000000000000014,Infinity
27,0.5,6.642325078E7
27,0.5678236176667799,6.64684956E7
27,0.6448473215603789,6.653682684E7
27,0.7323190779422953,6.685540633E7
27,0.8316561362471894,Infinity
27,0.944467991877311,Infinity
27,1.0725824638365073,Infinity
27,1.2180753097231876,Infinity
27,1.3833038579152075,Infinity
27,1.5709452018676529,Infinity
27,1.784039575361521,Infinity
27,2.0260396114849692,Infinity
27,2.300866283459185,Infinity
27,2.6129724336826263,Infinity
27,2.967414920314478,Infinity
27,3.369936550342693,Infinity
27,3.827059126646193,Infinity
27,4.346189116633817,Infinity
27,4.935737654542001,Infinity
27,5.605256821712372,Infinity
27,6.365594412912231,Infinity
27,7.22906969627853,Infinity
27,8.20967301461233,Infinity
27,9.323292462037024,Infinity
27,10.587971308718565,Infinity
27,12.024200344537292,Infinity
27,13.655249878370613,Infinity
27,15.507546772160516,Infinity
27,17.61110261860996,Infinity
27,20.000000000000014,Infinity
29,0.5,6.644406339E7
29,0.5678236176667799,6.650304338E7
29,0.6448473215603789,6.664120354E7
29,0.7323190779422953,Infinity
29,0.8316561362471894,Infinity
29,0.944467991877311,Infinity
29,1.0725824638365073,Infinity
29,1.2180753097231876,Infinity
29,1.3833038579152075,Infinity
29,1.5709452018676529,Infinity
29,1.784039575361521,Infinity
29,2.0260396114849692,Infinity
29,2.300866283459185,Infinity
29,2.6129724336826263,Infinity
29,2.967414920314478,Infinity
29,3.369936550342693,Infinity
29,3.827059126646193,Infinity
29,4.346189116633817,Infinity
29,4.935737654542001,Infinity
29,5.605256821712372,Infinity
29,6.365594412912231,Infinity
29,7.22906969627853,Infinity
29,8.20967301461233,Infinity
29,9.323292462037024,Infinity
29,10.587971308718565,Infinity
29,12.024200344537292,Infinity
29,13.655249878370613,Infinity
29,15.507546772160516,Infinity
29,17.61110261860996,Infinity
29,20.000000000000014,Infinity
31,0.5,6.648474193E7
31,0.5678236176667799,6.657697338E7
31,0.6448473215603789,6.702366082E7
31,0.7323190779422953,Infinity
31,0.8316561362471894,Infinity
31,0.944467991877311,Infinity
31,1.0725824638365073,Infinity
31,1.2180753097231876,Infinity
31,1.3833038579152075,Infinity
31,1.5709452018676529,Infinity
31,1.784039575361521,Infinity
31,2.0260396114849692,Infinity
31,2.300866283459185,Infinity
31,2.6129724336826263,Infinity
31,2.967414920314478,Infinity
31,3.369936550342693,Infinity
31,3.827059126646193,Infinity
31,4.346189116633817,Infinity
31,4.935737654542001,Infinity
31,5.605256821712372,Infinity
31,6.365594412912231,Infinity
31,7.22906969627853,Infinity
31,8.20967301461233,Infinity
31,9.323292462037024,Infinity
31,10.587971308718565,Infinity
31,12.024200344537292,Infinity
31,13.655249878370613,Infinity
31,15.507546772160516,Infinity
31,17.61110261860996,Infinity
31,20.000000000000014,Infinity
33,0.5,6.651093726E7
33,0.5678236176667799,6.668666691E7
33,0.6448473215603789,Infinity
33,0.7323190779422953,Infinity
33,0.8316561362471894,Infinity
33,0.944467991877311,Infinity
33,1.0725824638365073,Infinity
33,1.2180753097231876,Infinity
33,1.3833038579152075,Infinity
33,1.5709452018676529,Infinity
33,1.784039575361521,Infinity
33,2.0260396114849692,Infinity
33,2.300866283459185,Infinity
33,2.6129724336826263,Infinity
33,2.967414920314478,Infinity
33,3.369936550342693,Infinity
33,3.827059126646193,Infinity
33,4.346189116633817,Infinity
33,4.935737654542001,Infinity
33,5.605256821712372,Infinity
33,6.365594412912231,Infinity
33,7.22906969627853,Infinity
33,8.20967301461233,Infinity
33,9.323292462037024,Infinity
33,10.587971308718565,Infinity
33,12.024200344537292,Infinity
33,13.655249878370613,Infinity
33,15.507546772160516,Infinity
33,17.61110261860996,Infinity
33,20.000000000000014,Infinity
35,0.5,6.656410245E7
35,0.5678236176667799,6.700467465E7
35,0.6448473215603789,Infinity
35,0.7323190779422953,Infinity
35,0.8316561362471894,Infinity
35,0.944467991877311,Infinity
35,1.0725824638365073,Infinity
35,1.2180753097231876,Infinity
35,1.3833038579152075,Infinity
35,1.5709452018676529,Infinity
35,1.784039575361521,Infinity
35,2.0260396114849692,Infinity
35,2.300866283459185,Infinity
35,2.6129724336826263,Infinity
35,2.967414920314478,Infinity
35,3.369936550342693,Infinity
35,3.827059126646193,Infinity
35,4.346189116633817,Infinity
35,4.935737654542001,Infinity
35,5.605256821712372,Infinity
35,6.365594412912231,Infinity
35,7.22906969627853,Infinity
35,8.20967301461233,Infinity
35,9.323292462037024,Infinity
35,10.587971308718565,Infinity
35,12.024200344537292,Infinity
35,13.655249878370613,Infinity
35,15.507546772160516,Infinity
35,17.61110261860996,Infinity
35,20.000000000000014,Infinity
37,0.5,6.663970907E7
37,0.5678236176667799,Infinity
37,0.6448473215603789,Infinity
37,0.7323190779422953,Infinity
37,0.8316561362471894,Infinity
37,0.944467991877311,Infinity
37,1.0725824638365073,Infinity
37,1.2180753097231876,Infinity
37,1.3833038579152075,Infinity
37,1.5709452018676529,Infinity
37,1.784039575361521,Infinity
37,2.0260396114849692,Infinity
37,2.300866283459185,Infinity
37,2.6129724336826263,Infinity
37,2.967414920314478,Infinity
37,3.369936550342693,Infinity
37,3.827059126646193,Infinity
37,4.346189116633817,Infinity
37,4.935737654542001,Infinity
37,5.605256821712372,Infinity
37,6.365594412912231,Infinity
37,7.22906969627853,Infinity
37,8.20967301461233,Infinity
37,9.323292462037024,Infinity
37,10.587971308718565,Infinity
37,12.024200344537292,Infinity
37,13.655249878370613,Infinity
37,15.507546772160516,Infinity
37,17.61110261860996,Infinity
37,20.000000000000014,Infinity
40,0.5,6.703135504E7
40,0.5678236176667799,Infinity
40,0.6448473215603789,Infinity
40,0.7323190779422953,Infinity
40,0.8316561362471894,Infinity
40,0.944467991877311,Infinity
40,1.0725824638365073,Infinity
40,1.2180753097231876,Infinity
40,1.3833038579152075,Infinity
40,1.5709452018676529,Infinity
40,1.784039575361521,Infinity
40,2.0260396114849692,Infinity
40,2.300866283459185,Infinity
40,2.6129724336826263,Infinity
40,2.967414920314478,Infinity
40,3.369936550342693,Infinity
40,3.827059126646193,Infinity
40,4.346189116633817,Infinity
40,4.935737654542001,Infinity
40,5.605256821712372,Infinity
40,6.365594412912231,Infinity
40,7.22906969627853,Infinity
40,8.20967301461233,Infinity
40,9.323292462037024,Infinity
40,10.587971308718565,Infinity
40,12.024200344537292,Infinity
40,13.655249878370613,Infinity
40,15.507546772160516,Infinity
40,17.61110261860996,Infinity
40,20.000000000000014,Infinity
