firstPhaseRestarts,firstPhaseTime,result
1,1.5,117375.1
1,1.8301038770410851,117377.99
1,2.2328534671738742,117375.55
1,2.7242358580930244,117379.02
1,3.323756403913594,117379.82
1,4.055212987428269,117375.62
1,4.947640673679891,117378.8
1,6.03646425273849,117376.71
1,7.364904421704418,117376.52
1,8.985693424132192,117378.37
1,10.963168248937938,117378.44
1,13.375824478023363,117377.9
1,16.319432157234402,117377.75
1,19.910837374709093,117377.23
1,24.292600449726436,117376.5
1,29.638654844302906,117379.07
1,36.16121142722753,117376.4
1,44.11918215431432,117378.02
1,53.82845754166166,117375.35
1,65.67444589475764,117376.38
1,80.12737203634728,117376.75
1,97.76094281388839,117379.17
1,119.2751203112593,117377.41
1,145.52390674411836,117376.17
1,177.54924395638423,117376.54
1,216.62237315352814,117377.82
1,264.2942966414084,117376.46
1,322.4573446421921,117378.56
1,393.42029107336606,117391.0
1,479.9999999999996,117391.0
2,1.5,117372.08
2,1.8301038770410851,117372.26
2,2.2328534671738742,117372.61
2,2.7242358580930244,117371.79
2,3.323756403913594,117371.57
2,4.055212987428269,117372.73
2,4.947640673679891,117373.63
2,6.03646425273849,117372.55
2,7.364904421704418,117371.73
2,8.985693424132192,117371.31
2,10.963168248937938,117370.96
2,13.375824478023363,117371.98
2,16.319432157234402,117371.08
2,19.910837374709093,117369.57
2,24.292600449726436,117372.3
2,29.638654844302906,117371.66
2,36.16121142722753,117372.01
2,44.11918215431432,117370.46
2,53.82845754166166,117371.32
2,65.67444589475764,117370.86
2,80.12737203634728,117371.69
2,97.76094281388839,117370.04
2,119.2751203112593,117373.17
2,145.52390674411836,117373.82
2,177.54924395638423,117372.47
2,216.62237315352814,117372.6
2,264.2942966414084,Infinity
2,322.4573446421921,Infinity
2,393.42029107336606,Infinity
2,479.9999999999996,Infinity
3,1.5,117373.21
3,1.8301038770410851,117371.34
3,2.2328534671738742,117372.6
3,2.7242358580930244,117373.46
3,3.323756403913594,117370.89
3,4.055212987428269,117371.39
3,4.947640673679891,117368.57
3,6.03646425273849,117369.7
3,7.364904421704418,117368.15
3,8.985693424132192,117368.02
3,10.963168248937938,117368.38
3,13.375824478023363,117366.04
3,16.319432157234402,117366.94
3,19.910837374709093,117366.8
3,24.292600449726436,117368.73
3,29.638654844302906,117371.23
3,36.16121142722753,117367.6
3,44.11918215431432,117366.78
3,53.82845754166166,117368.92
3,65.67444589475764,117372.51
3,80.12737203634728,117368.93
3,97.76094281388839,117370.59
3,119.2751203112593,117369.7
3,145.52390674411836,117372.43
3,177.54924395638423,Infinity
3,216.62237315352814,Infinity
3,264.2942966414084,Infinity
3,322.4573446421921,Infinity
3,393.42029107336606,Infinity
3,479.9999999999996,Infinity
4,1.5,117370.01
4,1.8301038770410851,117373.17
4,2.2328534671738742,117368.03
4,2.7242358580930244,117369.73
4,3.323756403913594,117366.63
4,4.055212987428269,117367.66
4,4.947640673679891,117367.53
4,6.03646425273849,117367.95
4,7.364904421704418,117367.62
4,8.985693424132192,117366.88
4,10.963168248937938,117367.4
4,13.375824478023363,117364.47
4,16.319432157234402,117368.29
4,19.910837374709093,117367.48
4,24.292600449726436,117365.5
4,29.638654844302906,117367.05
4,36.16121142722753,117365.55
4,44.11918215431432,117365.14
4,53.82845754166166,117366.73
4,65.67444589475764,117367.08
4,80.12737203634728,117369.63
4,97.76094281388839,117370.36
4,119.2751203112593,117375.04
4,145.52390674411836,Infinity
4,177.54924395638423,Infinity
4,216.62237315352814,Infinity
4,264.2942966414084,Infinity
4,322.4573446421921,Infinity
4,393.42029107336606,Infinity
4,479.9999999999996,Infinity
5,1.5,117371.42
5,1.8301038770410851,117372.93
5,2.2328534671738742,117368.19
5,2.7242358580930244,117366.92
5,3.323756403913594,117368.02
5,4.055212987428269,117366.49
5,4.947640673679891,117367.89
5,6.03646425273849,117365.41
5,7.364904421704418,117366.79
5,8.985693424132192,117364.96
5,10.963168248937938,117363.32
5,13.375824478023363,117365.26
5,16.319432157234402,117363.03
5,19.910837374709093,117365.32
5,24.292600449726436,117363.4
5,29.638654844302906,117364.69
5,36.16121142722753,117365.65
5,44.11918215431432,117363.53
5,53.82845754166166,117366.79
5,65.67444589475764,117367.7
5,80.12737203634728,117370.13
5,97.76094281388839,Infinity
5,119.2751203112593,Infinity
5,145.52390674411836,Infinity
5,177.54924395638423,Infinity
5,216.62237315352814,Infinity
5,264.2942966414084,Infinity
5,322.4573446421921,Infinity
5,393.42029107336606,Infinity
5,479.9999999999996,Infinity
6,1.5,117370.48
6,1.8301038770410851,117370.02
6,2.2328534671738742,117365.09
6,2.7242358580930244,117368.56
6,3.323756403913594,117365.46
6,4.055212987428269,117366.91
6,4.947640673679891,117365.81
6,6.03646425273849,117367.02
6,7.364904421704418,117366.15
6,8.985693424132192,117365.88
6,10.963168248937938,117369.28
6,13.375824478023363,117363.48
6,16.319432157234402,117364.46
6,19.910837374709093,117363.15
6,24.292600449726436,117365.05
6,29.638654844302906,117364.02
6,36.16121142722753,117365.01
6,44.11918215431432,117365.2
6,53.82845754166166,117364.45
6,65.67444589475764,117367.94
6,80.12737203634728,Infinity
6,97.76094281388839,Infinity
6,119.2751203112593,Infinity
6,145.52390674411836,Infinity
6,177.54924395638423,Infinity
6,216.62237315352814,Infinity
6,264.2942966414084,Infinity
6,322.4573446421921,Infinity
6,393.42029107336606,Infinity
6,479.9999999999996,Infinity
7,1.5,117369.19
7,1.8301038770410851,117369.74
7,2.2328534671738742,117367.77
7,2.7242358580930244,117367.81
7,3.323756403913594,117366.08
7,4.055212987428269,117363.81
7,4.947640673679891,117367.18
7,6.03646425273849,117363.07
7,7.364904421704418,117363.53
7,8.985693424132192,117363.8
7,10.963168248937938,117366.0
7,13.375824478023363,117363.31
7,16.319432157234402,117363.06
7,19.910837374709093,117363.34
7,24.292600449726436,117361.88
7,29.638654844302906,117362.75
7,36.16121142722753,117362.28
7,44.11918215431432,117365.07
7,53.82845754166166,117366.77
7,65.67444589475764,117374.9
7,80.12737203634728,Infinity
7,97.76094281388839,Infinity
7,119.2751203112593,Infinity
7,145.52390674411836,Infinity
7,177.54924395638423,Infinity
7,216.62237315352814,Infinity
7,264.2942966414084,Infinity
7,322.4573446421921,Infinity
7,393.42029107336606,Infinity
7,479.9999999999996,Infinity
8,1.5,117369.56
8,1.8301038770410851,117369.03
8,2.2328534671738742,117367.12
8,2.7242358580930244,117365.98
8,3.323756403913594,117365.75
8,4.055212987428269,117364.8
8,4.947640673679891,117364.42
8,6.03646425273849,117364.14
8,7.364904421704418,117364.0
8,8.985693424132192,117363.77
8,10.963168248937938,117362.86
8,13.375824478023363,117362.32
8,16.319432157234402,117361.99
8,19.910837374709093,117361.82
8,24.292600449726436,117360.84
8,29.638654844302906,117364.06
8,36.16121142722753,117366.43
8,44.11918215431432,117367.29
8,53.82845754166166,117367.86
8,65.67444589475764,Infinity
8,80.12737203634728,Infinity
8,97.76094281388839,Infinity
8,119.2751203112593,Infinity
8,145.52390674411836,Infinity
8,177.54924395638423,Infinity
8,216.62237315352814,Infinity
8,264.2942966414084,Infinity
8,322.4573446421921,Infinity
8,393.42029107336606,Infinity
8,479.9999999999996,Infinity
9,1.5,117370.03
9,1.8301038770410851,117368.79
9,2.2328534671738742,117364.62
9,2.7242358580930244,117365.92
9,3.323756403913594,117365.49
9,4.055212987428269,117365.48
9,4.947640673679891,117364.84
9,6.03646425273849,117362.53
9,7.364904421704418,117362.56
9,8.985693424132192,117362.25
9,10.963168248937938,117360.08
9,13.375824478023363,117362.76
9,16.319432157234402,117361.01
9,19.910837374709093,117363.81
9,24.292600449726436,117361.52
9,29.638654844302906,117363.07
9,36.16121142722753,117364.1
9,44.11918215431432,117367.4
9,53.82845754166166,Infinity
9,65.67444589475764,Infinity
9,80.12737203634728,Infinity
9,97.76094281388839,Infinity
9,119.2751203112593,Infinity
9,145.52390674411836,Infinity
9,177.54924395638423,Infinity
9,216.62237315352814,Infinity
9,264.2942966414084,Infinity
9,322.4573446421921,Infinity
9,393.42029107336606,Infinity
9,479.9999999999996,Infinity
11,1.5,117366.92
11,1.8301038770410851,117366.91
11,2.2328534671738742,117363.1
11,2.7242358580930244,117365.51
11,3.323756403913594,117364.71
11,4.055212987428269,117363.52
11,4.947640673679891,117362.79
11,6.03646425273849,117362.66
11,7.364904421704418,117361.25
11,8.985693424132192,117362.99
11,10.963168248937938,117361.57
11,13.375824478023363,117360.08
11,16.319432157234402,117360.09
11,19.910837374709093,117362.79
11,24.292600449726436,117360.83
11,29.638654844302906,117364.41
11,36.16121142722753,117366.86
11,44.11918215431432,Infinity
11,53.82845754166166,Infinity
11,65.67444589475764,Infinity
11,80.12737203634728,Infinity
11,97.76094281388839,Infinity
11,119.2751203112593,Infinity
11,145.52390674411836,Infinity
11,177.54924395638423,Infinity
11,216.62237315352814,Infinity
11,264.2942966414084,Infinity
11,322.4573446421921,Infinity
11,393.42029107336606,Infinity
11,479.9999999999996,Infinity
13,1.5,117368.8
13,1.8301038770410851,117365.44
13,2.2328534671738742,117361.9
13,2.7242358580930244,117363.05
13,3.323756403913594,117363.98
13,4.055212987428269,117361.56
13,4.947640673679891,117360.97
13,6.03646425273849,117362.83
13,7.364904421704418,117359.44
13,8.985693424132192,117360.49
13,10.963168248937938,117360.85
13,13.375824478023363,117361.14
13,16.319432157234402,117361.42
13,19.910837374709093,117361.18
13,24.292600449726436,117363.04
13,29.638654844302906,117365.67
13,36.16121142722753,117379.28
13,44.11918215431432,Infinity
13,53.82845754166166,Infinity
13,65.67444589475764,Infinity
13,80.12737203634728,Infinity
13,97.76094281388839,Infinity
13,119.2751203112593,Infinity
13,145.52390674411836,Infinity
13,177.54924395638423,Infinity
13,216.62237315352814,Infinity
13,264.2942966414084,Infinity
13,322.4573446421921,Infinity
13,393.42029107336606,Infinity
13,479.9999999999996,Infinity
15,1.5,117365.82
15,1.8301038770410851,117367.12
15,2.2328534671738742,117363.37
15,2.7242358580930244,117363.89
15,3.323756403913594,117361.03
15,4.055212987428269,117360.79
15,4.947640673679891,117362.12
15,6.03646425273849,117361.49
15,7.364904421704418,117359.73
15,8.985693424132192,117360.19
15,10.963168248937938,117358.41
15,13.375824478023363,117359.46
15,16.319432157234402,117361.39
15,19.910837374709093,117363.76
15,24.292600449726436,117368.3
15,29.638654844302906,117373.61
15,36.16121142722753,Infinity
15,44.11918215431432,Infinity
15,53.82845754166166,Infinity
15,65.67444589475764,Infinity
15,80.12737203634728,Infinity
15,97.76094281388839,Infinity
15,119.2751203112593,Infinity
15,145.52390674411836,Infinity
15,177.54924395638423,Infinity
15,216.62237315352814,Infinity
15,264.2942966414084,Infinity
15,322.4573446421921,Infinity
15,393.42029107336606,Infinity
15,479.9999999999996,Infinity
18,1.5,117368.78
18,1.8301038770410851,117364.85
18,2.2328534671738742,117362.14
18,2.7242358580930244,117363.71
18,3.323756403913594,117362.31
18,4.055212987428269,117360.88
18,4.947640673679891,117362.19
18,6.03646425273849,117360.2
18,7.364904421704418,117361.15
18,8.985693424132192,117359.35
18,10.963168248937938,117359.9
18,13.375824478023363,117360.63
18,16.319432157234402,117361.85
18,19.910837374709093,117363.72
18,24.292600449726436,117370.78
18,29.638654844302906,Infinity
18,36.16121142722753,Infinity
18,44.11918215431432,Infinity
18,53.82845754166166,Infinity
18,65.67444589475764,Infinity
18,80.12737203634728,Infinity
18,97.76094281388839,Infinity
18,119.2751203112593,Infinity
18,145.52390674411836,Infinity
18,177.54924395638423,Infinity
18,216.62237315352814,Infinity
18,264.2942966414084,Infinity
18,322.4573446421921,Infinity
18,393.42029107336606,Infinity
18,479.9999999999996,Infinity
21,1.5,117366.91
21,1.8301038770410851,117365.5
21,2.2328534671738742,117359.79
21,2.7242358580930244,117362.22
21,3.323756403913594,117363.05
21,4.055212987428269,117361.21
21,4.947640673679891,117360.23
21,6.03646425273849,117358.28
21,7.364904421704418,117359.39
21,8.985693424132192,117363.01
21,10.963168248937938,117360.3
21,13.375824478023363,117362.07
21,16.319432157234402,117363.54
21,19.910837374709093,117368.51
21,24.292600449726436,Infinity
21,29.638654844302906,Infinity
21,36.16121142722753,Infinity
21,44.11918215431432,Infinity
21,53.82845754166166,Infinity
21,65.67444589475764,Infinity
21,80.12737203634728,Infinity
21,97.76094281388839,Infinity
21,119.2751203112593,Infinity
21,145.52390674411836,Infinity
21,177.54924395638423,Infinity
21,216.62237315352814,Infinity
21,264.2942966414084,Infinity
21,322.4573446421921,Infinity
21,393.42029107336606,Infinity
21,479.9999999999996,Infinity
25,1.5,117364.89
25,1.8301038770410851,117364.25
25,2.2328534671738742,117362.39
25,2.7242358580930244,117360.4
25,3.323756403913594,117361.77
25,4.055212987428269,117361.89
25,4.947640673679891,117360.59
25,6.03646425273849,117360.19
25,7.364904421704418,117362.26
25,8.985693424132192,117359.84
25,10.963168248937938,117359.79
25,13.375824478023363,117359.26
25,16.319432157234402,117368.9
25,19.910837374709093,Infinity
25,24.292600449726436,Infinity
25,29.638654844302906,Infinity
25,36.16121142722753,Infinity
25,44.11918215431432,Infinity
25,53.82845754166166,Infinity
25,65.67444589475764,Infinity
25,80.12737203634728,Infinity
25,97.76094281388839,Infinity
25,119.2751203112593,Infinity
25,145.52390674411836,Infinity
25,177.54924395638423,Infinity
25,216.62237315352814,Infinity
25,264.2942966414084,Infinity
25,322.4573446421921,Infinity
25,393.42029107336606,Infinity
25,479.9999999999996,Infinity
30,1.5,117364.76
30,1.8301038770410851,117364.17
30,2.2328534671738742,117360.97
30,2.7242358580930244,117359.87
30,3.323756403913594,117358.96
30,4.055212987428269,117359.94
30,4.947640673679891,117360.99
30,6.03646425273849,117358.04
30,7.364904421704418,117359.08
30,8.985693424132192,117359.73
30,10.963168248937938,117360.65
30,13.375824478023363,117366.83
30,16.319432157234402,Infinity
30,19.910837374709093,Infinity
30,24.292600449726436,Infinity
30,29.638654844302906,Infinity
30,36.16121142722753,Infinity
30,44.11918215431432,Infinity
30,53.82845754166166,Infinity
30,65.67444589475764,Infinity
30,80.12737203634728,Infinity
30,97.76094281388839,Infinity
30,119.2751203112593,Infinity
30,145.52390674411836,Infinity
30,177.54924395638423,Infinity
30,216.62237315352814,Infinity
30,264.2942966414084,Infinity
30,322.4573446421921,Infinity
30,393.42029107336606,Infinity
30,479.9999999999996,Infinity
36,1.5,117365.41
36,1.8301038770410851,117366.26
36,2.2328534671738742,117363.52
36,2.7242358580930244,117361.69
36,3.323756403913594,117358.71
36,4.055212987428269,117359.04
36,4.947640673679891,117360.43
36,6.03646425273849,117358.16
36,7.364904421704418,117359.94
36,8.985693424132192,117360.93
36,10.963168248937938,117363.73
36,13.375824478023363,Infinity
36,16.319432157234402,Infinity
36,19.910837374709093,Infinity
36,24.292600449726436,Infinity
36,29.638654844302906,Infinity
36,36.16121142722753,Infinity
36,44.11918215431432,Infinity
36,53.82845754166166,Infinity
36,65.67444589475764,Infinity
36,80.12737203634728,Infinity
36,97.76094281388839,Infinity
36,119.2751203112593,Infinity
36,145.52390674411836,Infinity
36,177.54924395638423,Infinity
36,216.62237315352814,Infinity
36,264.2942966414084,Infinity
36,322.4573446421921,Infinity
36,393.42029107336606,Infinity
36,479.9999999999996,Infinity
43,1.5,117365.37
43,1.8301038770410851,117364.5
43,2.2328534671738742,117360.39
43,2.7242358580930244,117361.87
43,3.323756403913594,117358.79
43,4.055212987428269,117358.6
43,4.947640673679891,117358.54
43,6.03646425273849,117360.74
43,7.364904421704418,117360.8
43,8.985693424132192,117365.02
43,10.963168248937938,117388.72
43,13.375824478023363,Infinity
43,16.319432157234402,Infinity
43,19.910837374709093,Infinity
43,24.292600449726436,Infinity
43,29.638654844302906,Infinity
43,36.16121142722753,Infinity
43,44.11918215431432,Infinity
43,53.82845754166166,Infinity
43,65.67444589475764,Infinity
43,80.12737203634728,Infinity
43,97.76094281388839,Infinity
43,119.2751203112593,Infinity
43,145.52390674411836,Infinity
43,177.54924395638423,Infinity
43,216.62237315352814,Infinity
43,264.2942966414084,Infinity
43,322.4573446421921,Infinity
43,393.42029107336606,Infinity
43,479.9999999999996,Infinity
51,1.5,117363.02
51,1.8301038770410851,117365.45
51,2.2328534671738742,117358.94
51,2.7242358580930244,117358.43
51,3.323756403913594,117360.81
51,4.055212987428269,117358.98
51,4.947640673679891,117360.27
51,6.03646425273849,117361.91
51,7.364904421704418,117363.03
51,8.985693424132192,117382.96
51,10.963168248937938,Infinity
51,13.375824478023363,Infinity
51,16.319432157234402,Infinity
51,19.910837374709093,Infinity
51,24.292600449726436,Infinity
51,29.638654844302906,Infinity
51,36.16121142722753,Infinity
51,44.11918215431432,Infinity
51,53.82845754166166,Infinity
51,65.67444589475764,Infinity
51,80.12737203634728,Infinity
51,97.76094281388839,Infinity
51,119.2751203112593,Infinity
51,145.52390674411836,Infinity
51,177.54924395638423,Infinity
51,216.62237315352814,Infinity
51,264.2942966414084,Infinity
51,322.4573446421921,Infinity
51,393.42029107336606,Infinity
51,479.9999999999996,Infinity
60,1.5,117363.72
60,1.8301038770410851,117362.83
60,2.2328534671738742,117358.72
60,2.7242358580930244,117361.35
60,3.323756403913594,117359.92
60,4.055212987428269,117358.52
60,4.947640673679891,117361.94
60,6.03646425273849,117363.45
60,7.364904421704418,117374.91
60,8.985693424132192,Infinity
60,10.963168248937938,Infinity
60,13.375824478023363,Infinity
60,16.319432157234402,Infinity
60,19.910837374709093,Infinity
60,24.292600449726436,Infinity
60,29.638654844302906,Infinity
60,36.16121142722753,Infinity
60,44.11918215431432,Infinity
60,53.82845754166166,Infinity
60,65.67444589475764,Infinity
60,80.12737203634728,Infinity
60,97.76094281388839,Infinity
60,119.2751203112593,Infinity
60,145.52390674411836,Infinity
60,177.54924395638423,Infinity
60,216.62237315352814,Infinity
60,264.2942966414084,Infinity
60,322.4573446421921,Infinity
60,393.42029107336606,Infinity
60,479.9999999999996,Infinity
71,1.5,117364.18
71,1.8301038770410851,117362.33
71,2.2328534671738742,117357.7
71,2.7242358580930244,117362.66
71,3.323756403913594,117358.57
71,4.055212987428269,117358.47
71,4.947640673679891,117360.33
71,6.03646425273849,117370.51
71,7.364904421704418,Infinity
71,8.985693424132192,Infinity
71,10.963168248937938,Infinity
71,13.375824478023363,Infinity
71,16.319432157234402,Infinity
71,19.910837374709093,Infinity
71,24.292600449726436,Infinity
71,29.638654844302906,Infinity
71,36.16121142722753,Infinity
71,44.11918215431432,Infinity
71,53.82845754166166,Infinity
71,65.67444589475764,Infinity
71,80.12737203634728,Infinity
71,97.76094281388839,Infinity
71,119.2751203112593,Infinity
71,145.52390674411836,Infinity
71,177.54924395638423,Infinity
71,216.62237315352814,Infinity
71,264.2942966414084,Infinity
71,322.4573446421921,Infinity
71,393.42029107336606,Infinity
71,479.9999999999996,Infinity
84,1.5,117360.78
84,1.8301038770410851,117364.51
84,2.2328534671738742,117357.18
84,2.7242358580930244,117361.67
84,3.323756403913594,117360.39
84,4.055212987428269,117362.14
84,4.947640673679891,117371.4
84,6.03646425273849,Infinity
84,7.364904421704418,Infinity
84,8.985693424132192,Infinity
84,10.963168248937938,Infinity
84,13.375824478023363,Infinity
84,16.319432157234402,Infinity
84,19.910837374709093,Infinity
84,24.292600449726436,Infinity
84,29.638654844302906,Infinity
84,36.16121142722753,Infinity
84,44.11918215431432,Infinity
84,53.82845754166166,Infinity
84,65.67444589475764,Infinity
84,80.12737203634728,Infinity
84,97.76094281388839,Infinity
84,119.2751203112593,Infinity
84,145.52390674411836,Infinity
84,177.54924395638423,Infinity
84,216.62237315352814,Infinity
84,264.2942966414084,Infinity
84,322.4573446421921,Infinity
84,393.42029107336606,Infinity
84,479.9999999999996,Infinity
99,1.5,117363.99
99,1.8301038770410851,117363.03
99,2.2328534671738742,117359.17
99,2.7242358580930244,117363.25
99,3.323756403913594,117362.93
99,4.055212987428269,117366.47
99,4.947640673679891,Infinity
99,6.03646425273849,Infinity
99,7.364904421704418,Infinity
99,8.985693424132192,Infinity
99,10.963168248937938,Infinity
99,13.375824478023363,Infinity
99,16.319432157234402,Infinity
99,19.910837374709093,Infinity
99,24.292600449726436,Infinity
99,29.638654844302906,Infinity
99,36.16121142722753,Infinity
99,44.11918215431432,Infinity
99,53.82845754166166,Infinity
99,65.67444589475764,Infinity
99,80.12737203634728,Infinity
99,97.76094281388839,Infinity
99,119.2751203112593,Infinity
99,145.52390674411836,Infinity
99,177.54924395638423,Infinity
99,216.62237315352814,Infinity
99,264.2942966414084,Infinity
99,322.4573446421921,Infinity
99,393.42029107336606,Infinity
99,479.9999999999996,Infinity
117,1.5,117362.71
117,1.8301038770410851,117362.57
117,2.2328534671738742,117361.65
117,2.7242358580930244,117362.58
117,3.323756403913594,117366.27
117,4.055212987428269,117409.67
117,4.947640673679891,Infinity
117,6.03646425273849,Infinity
117,7.364904421704418,Infinity
117,8.985693424132192,Infinity
117,10.963168248937938,Infinity
117,13.375824478023363,Infinity
117,16.319432157234402,Infinity
117,19.910837374709093,Infinity
117,24.292600449726436,Infinity
117,29.638654844302906,Infinity
117,36.16121142722753,Infinity
117,44.11918215431432,Infinity
117,53.82845754166166,Infinity
117,65.67444589475764,Infinity
117,80.12737203634728,Infinity
117,97.76094281388839,Infinity
117,119.2751203112593,Infinity
117,145.52390674411836,Infinity
117,177.54924395638423,Infinity
117,216.62237315352814,Infinity
117,264.2942966414084,Infinity
117,322.4573446421921,Infinity
117,393.42029107336606,Infinity
117,479.9999999999996,Infinity
138,1.5,117364.93
138,1.8301038770410851,117365.06
138,2.2328534671738742,117361.51
138,2.7242358580930244,117368.56
138,3.323756403913594,117384.98
138,4.055212987428269,Infinity
138,4.947640673679891,Infinity
138,6.03646425273849,Infinity
138,7.364904421704418,Infinity
138,8.985693424132192,Infinity
138,10.963168248937938,Infinity
138,13.375824478023363,Infinity
138,16.319432157234402,Infinity
138,19.910837374709093,Infinity
138,24.292600449726436,Infinity
138,29.638654844302906,Infinity
138,36.16121142722753,Infinity
138,44.11918215431432,Infinity
138,53.82845754166166,Infinity
138,65.67444589475764,Infinity
138,80.12737203634728,Infinity
138,97.76094281388839,Infinity
138,119.2751203112593,Infinity
138,145.52390674411836,Infinity
138,177.54924395638423,Infinity
138,216.62237315352814,Infinity
138,264.2942966414084,Infinity
138,322.4573446421921,Infinity
138,393.42029107336606,Infinity
138,479.9999999999996,Infinity
163,1.5,117364.26
163,1.8301038770410851,117365.19
163,2.2328534671738742,117364.79
163,2.7242358580930244,117378.87
163,3.323756403913594,Infinity
163,4.055212987428269,Infinity
163,4.947640673679891,Infinity
163,6.03646425273849,Infinity
163,7.364904421704418,Infinity
163,8.985693424132192,Infinity
163,10.963168248937938,Infinity
163,13.375824478023363,Infinity
163,16.319432157234402,Infinity
163,19.910837374709093,Infinity
163,24.292600449726436,Infinity
163,29.638654844302906,Infinity
163,36.16121142722753,Infinity
163,44.11918215431432,Infinity
163,53.82845754166166,Infinity
163,65.67444589475764,Infinity
163,80.12737203634728,Infinity
163,97.76094281388839,Infinity
163,119.2751203112593,Infinity
163,145.52390674411836,Infinity
163,177.54924395638423,Infinity
163,216.62237315352814,Infinity
163,264.2942966414084,Infinity
163,322.4573446421921,Infinity
163,393.42029107336606,Infinity
163,479.9999999999996,Infinity
193,1.5,117367.82
193,1.8301038770410851,117370.08
193,2.2328534671738742,117374.85
193,2.7242358580930244,Infinity
193,3.323756403913594,Infinity
193,4.055212987428269,Infinity
193,4.947640673679891,Infinity
193,6.03646425273849,Infinity
193,7.364904421704418,Infinity
193,8.985693424132192,Infinity
193,10.963168248937938,Infinity
193,13.375824478023363,Infinity
193,16.319432157234402,Infinity
193,19.910837374709093,Infinity
193,24.292600449726436,Infinity
193,29.638654844302906,Infinity
193,36.16121142722753,Infinity
193,44.11918215431432,Infinity
193,53.82845754166166,Infinity
193,65.67444589475764,Infinity
193,80.12737203634728,Infinity
193,97.76094281388839,Infinity
193,119.2751203112593,Infinity
193,145.52390674411836,Infinity
193,177.54924395638423,Infinity
193,216.62237315352814,Infinity
193,264.2942966414084,Infinity
193,322.4573446421921,Infinity
193,393.42029107336606,Infinity
193,479.9999999999996,Infinity
228,1.5,117368.68
228,1.8301038770410851,117374.83
228,2.2328534671738742,Infinity
228,2.7242358580930244,Infinity
228,3.323756403913594,Infinity
228,4.055212987428269,Infinity
228,4.947640673679891,Infinity
228,6.03646425273849,Infinity
228,7.364904421704418,Infinity
228,8.985693424132192,Infinity
228,10.963168248937938,Infinity
228,13.375824478023363,Infinity
228,16.319432157234402,Infinity
228,19.910837374709093,Infinity
228,24.292600449726436,Infinity
228,29.638654844302906,Infinity
228,36.16121142722753,Infinity
228,44.11918215431432,Infinity
228,53.82845754166166,Infinity
228,65.67444589475764,Infinity
228,80.12737203634728,Infinity
228,97.76094281388839,Infinity
228,119.2751203112593,Infinity
228,145.52390674411836,Infinity
228,177.54924395638423,Infinity
228,216.62237315352814,Infinity
228,264.2942966414084,Infinity
228,322.4573446421921,Infinity
228,393.42029107336606,Infinity
228,479.9999999999996,Infinity
270,1.5,117374.25
270,1.8301038770410851,Infinity
270,2.2328534671738742,Infinity
270,2.7242358580930244,Infinity
270,3.323756403913594,Infinity
270,4.055212987428269,Infinity
270,4.947640673679891,Infinity
270,6.03646425273849,Infinity
270,7.364904421704418,Infinity
270,8.985693424132192,Infinity
270,10.963168248937938,Infinity
270,13.375824478023363,Infinity
270,16.319432157234402,Infinity
270,19.910837374709093,Infinity
270,24.292600449726436,Infinity
270,29.638654844302906,Infinity
270,36.16121142722753,Infinity
270,44.11918215431432,Infinity
270,53.82845754166166,Infinity
270,65.67444589475764,Infinity
270,80.12737203634728,Infinity
270,97.76094281388839,Infinity
270,119.2751203112593,Infinity
270,145.52390674411836,Infinity
270,177.54924395638423,Infinity
270,216.62237315352814,Infinity
270,264.2942966414084,Infinity
270,322.4573446421921,Infinity
270,393.42029107336606,Infinity
270,479.9999999999996,Infinity
320,1.5,117589.76
320,1.8301038770410851,Infinity
320,2.2328534671738742,Infinity
320,2.7242358580930244,Infinity
320,3.323756403913594,Infinity
320,4.055212987428269,Infinity
320,4.947640673679891,Infinity
320,6.03646425273849,Infinity
320,7.364904421704418,Infinity
320,8.985693424132192,Infinity
320,10.963168248937938,Infinity
320,13.375824478023363,Infinity
320,16.319432157234402,Infinity
320,19.910837374709093,Infinity
320,24.292600449726436,Infinity
320,29.638654844302906,Infinity
320,36.16121142722753,Infinity
320,44.11918215431432,Infinity
320,53.82845754166166,Infinity
320,65.67444589475764,Infinity
320,80.12737203634728,Infinity
320,97.76094281388839,Infinity
320,119.2751203112593,Infinity
320,145.52390674411836,Infinity
320,177.54924395638423,Infinity
320,216.62237315352814,Infinity
320,264.2942966414084,Infinity
320,322.4573446421921,Infinity
320,393.42029107336606,Infinity
320,479.9999999999996,Infinity
