firstPhaseRestarts,firstPhaseTime,result
1,1.5,117385.17
1,1.7868800347819955,117383.24
1,2.128626839135004,117382.36
1,2.535733866900963,117381.47
1,3.0207014801905845,117381.29
1,3.598420777325985,117382.18
1,4.2866308291656745,117383.09
1,5.106463363411423,117382.46
1,6.08309162161706,117381.12
1,7.246503312278104,117381.33
1,8.63242139379423,117379.9
1,10.283400960263917,117382.46
1,12.250135910369062,117381.31
1,14.593015521069628,117384.95
1,17.383978721242066,117386.22
1,20.708723001374995,117381.0
1,24.66933578465844,117381.92
1,29.387429056626132,117383.14
1,35.00787350323835,117381.73
1,41.70324681540683,117381.08
1,49.67913274669087,117383.46
1,59.180433633564235,117380.66
1,70.49889020637123,117383.23
1,83.98203958936847,117383.23
1,100.04388654834244,117382.43
1,119.1776156501521,117385.25
1,141.97073466545274,117382.04
1,169.12311419801978,117379.29
1,201.4684774537313,117384.09
1,239.9999999999994,117382.14
2,1.5,117379.1
2,1.7868800347819955,117380.21
2,2.128626839135004,117376.8
2,2.535733866900963,117377.13
2,3.0207014801905845,117378.22
2,3.598420777325985,117379.31
2,4.2866308291656745,117379.78
2,5.106463363411423,117375.47
2,6.08309162161706,117377.23
2,7.246503312278104,117374.92
2,8.63242139379423,117377.35
2,10.283400960263917,117377.1
2,12.250135910369062,117376.48
2,14.593015521069628,117376.59
2,17.383978721242066,117377.93
2,20.708723001374995,117378.28
2,24.66933578465844,117376.78
2,29.387429056626132,117375.78
2,35.00787350323835,117377.18
2,41.70324681540683,117376.98
2,49.67913274669087,117378.29
2,59.180433633564235,117376.18
2,70.49889020637123,117380.54
2,83.98203958936847,117378.26
2,100.04388654834244,117380.29
2,119.1776156501521,117379.77
2,141.97073466545274,Infinity
2,169.12311419801978,Infinity
2,201.4684774537313,Infinity
2,239.9999999999994,Infinity
3,1.5,117381.78
3,1.7868800347819955,117378.69
3,2.128626839135004,117376.74
3,2.535733866900963,117380.43
3,3.0207014801905845,117376.55
3,3.598420777325985,117374.07
3,4.2866308291656745,117374.54
3,5.106463363411423,117374.35
3,6.08309162161706,117374.26
3,7.246503312278104,117377.14
3,8.63242139379423,117375.61
3,10.283400960263917,117373.68
3,12.250135910369062,117373.72
3,14.593015521069628,117376.15
3,17.383978721242066,117374.85
3,20.708723001374995,117374.01
3,24.66933578465844,117374.5
3,29.387429056626132,117373.36
3,35.00787350323835,117375.53
3,41.70324681540683,117377.01
3,49.67913274669087,117377.58
3,59.180433633564235,117375.55
3,70.49889020637123,117379.68
3,83.98203958936847,Infinity
3,100.04388654834244,Infinity
3,119.1776156501521,Infinity
3,141.97073466545274,Infinity
3,169.12311419801978,Infinity
3,201.4684774537313,Infinity
3,239.9999999999994,Infinity
4,1.5,117378.42
4,1.7868800347819955,117375.8
4,2.128626839135004,117374.73
4,2.535733866900963,117377.38
4,3.0207014801905845,117374.37
4,3.598420777325985,117377.9
4,4.2866308291656745,117373.27
4,5.106463363411423,117373.71
4,6.08309162161706,117372.55
4,7.246503312278104,117373.43
4,8.63242139379423,117372.48
4,10.283400960263917,117375.13
4,12.250135910369062,117372.74
4,14.593015521069628,117372.87
4,17.383978721242066,117370.93
4,20.708723001374995,117373.54
4,24.66933578465844,117371.9
4,29.387429056626132,117376.46
4,35.00787350323835,117372.8
4,41.70324681540683,117376.24
4,49.67913274669087,117377.7
4,59.180433633564235,117382.16
4,70.49889020637123,Infinity
4,83.98203958936847,Infinity
4,100.04388654834244,Infinity
4,119.1776156501521,Infinity
4,141.97073466545274,Infinity
4,169.12311419801978,Infinity
4,201.4684774537313,Infinity
4,239.9999999999994,Infinity
5,1.5,117376.12
5,1.7868800347819955,117376.99
5,2.128626839135004,117375.58
5,2.535733866900963,117377.33
5,3.0207014801905845,117374.73
5,3.598420777325985,117374.07
5,4.2866308291656745,117369.65
5,5.106463363411423,117375.72
5,6.08309162161706,117374.27
5,7.246503312278104,117371.97
5,8.63242139379423,117375.39
5,10.283400960263917,117369.77
5,12.250135910369062,117373.51
5,14.593015521069628,117371.31
5,17.383978721242066,117373.19
5,20.708723001374995,117372.38
5,24.66933578465844,117374.12
5,29.387429056626132,117375.4
5,35.00787350323835,117375.19
5,41.70324681540683,117379.87
5,49.67913274669087,Infinity
5,59.180433633564235,Infinity
5,70.49889020637123,Infinity
5,83.98203958936847,Infinity
5,100.04388654834244,Infinity
5,119.1776156501521,Infinity
5,141.97073466545274,Infinity
5,169.12311419801978,Infinity
5,201.4684774537313,Infinity
5,239.9999999999994,Infinity
6,1.5,117376.41
6,1.7868800347819955,117376.14
6,2.128626839135004,117372.63
6,2.535733866900963,117374.79
6,3.0207014801905845,117372.55
6,3.598420777325985,117373.13
6,4.2866308291656745,117374.15
6,5.106463363411423,117373.39
6,6.08309162161706,117372.73
6,7.246503312278104,117372.05
6,8.63242139379423,117374.64
6,10.283400960263917,117370.44
6,12.250135910369062,117370.67
6,14.593015521069628,117374.61
6,17.383978721242066,117374.8
6,20.708723001374995,117374.92
6,24.66933578465844,117374.96
6,29.387429056626132,117376.86
6,35.00787350323835,117379.57
6,41.70324681540683,Infinity
6,49.67913274669087,Infinity
6,59.180433633564235,Infinity
6,70.49889020637123,Infinity
6,83.98203958936847,Infinity
6,100.04388654834244,Infinity
6,119.1776156501521,Infinity
6,141.97073466545274,Infinity
6,169.12311419801978,Infinity
6,201.4684774537313,Infinity
6,239.9999999999994,Infinity
7,1.5,117376.58
7,1.7868800347819955,117376.99
7,2.128626839135004,117373.43
7,2.535733866900963,117378.27
7,3.0207014801905845,117373.75
7,3.598420777325985,117372.18
7,4.2866308291656745,117372.92
7,5.106463363411423,117371.63
7,6.08309162161706,117371.62
7,7.246503312278104,117368.81
7,8.63242139379423,117374.16
7,10.283400960263917,117374.33
7,12.250135910369062,117372.8
7,14.593015521069628,117371.94
7,17.383978721242066,117371.86
7,20.708723001374995,117372.93
7,24.66933578465844,117374.99
7,29.387429056626132,117383.23
7,35.00787350323835,Infinity
7,41.70324681540683,Infinity
7,49.67913274669087,Infinity
7,59.180433633564235,Infinity
7,70.49889020637123,Infinity
7,83.98203958936847,Infinity
7,100.04388654834244,Infinity
7,119.1776156501521,Infinity
7,141.97073466545274,Infinity
7,169.12311419801978,Infinity
7,201.4684774537313,Infinity
7,239.9999999999994,Infinity
8,1.5,117374.26
8,1.7868800347819955,117375.35
8,2.128626839135004,117375.33
8,2.535733866900963,117375.18
8,3.0207014801905845,117370.0
8,3.598420777325985,117371.91
8,4.2866308291656745,117373.83
8,5.106463363411423,117368.31
8,6.08309162161706,117373.99
8,7.246503312278104,117373.37
8,8.63242139379423,117369.09
8,10.283400960263917,117370.9
8,12.250135910369062,117373.55
8,14.593015521069628,117372.81
8,17.383978721242066,117373.69
8,20.708723001374995,117375.37
8,24.66933578465844,117378.05
8,29.387429056626132,117392.11
8,35.00787350323835,Infinity
8,41.70324681540683,Infinity
8,49.67913274669087,Infinity
8,59.180433633564235,Infinity
8,70.49889020637123,Infinity
8,83.98203958936847,Infinity
8,100.04388654834244,Infinity
8,119.1776156501521,Infinity
8,141.97073466545274,Infinity
8,169.12311419801978,Infinity
8,201.4684774537313,Infinity
8,239.9999999999994,Infinity
9,1.5,117373.41
9,1.7868800347819955,117374.17
9,2.128626839135004,117374.37
9,2.535733866900963,117372.84
9,3.0207014801905845,117370.9
9,3.598420777325985,117372.47
9,4.2866308291656745,117373.91
9,5.106463363411423,117370.76
9,6.08309162161706,117370.54
9,7.246503312278104,117371.69
9,8.63242139379423,117370.1
9,10.283400960263917,117370.38
9,12.250135910369062,117371.94
9,14.593015521069628,117371.81
9,17.383978721242066,117372.42
9,20.708723001374995,117379.71
9,24.66933578465844,117385.63
9,29.387429056626132,Infinity
9,35.00787350323835,Infinity
9,41.70324681540683,Infinity
9,49.67913274669087,Infinity
9,59.180433633564235,Infinity
9,70.49889020637123,Infinity
9,83.98203958936847,Infinity
9,100.04388654834244,Infinity
9,119.1776156501521,Infinity
9,141.97073466545274,Infinity
9,169.12311419801978,Infinity
9,201.4684774537313,Infinity
9,239.9999999999994,Infinity
10,1.5,117374.19
10,1.7868800347819955,117373.35
10,2.128626839135004,117372.33
10,2.535733866900963,117372.72
10,3.0207014801905845,117372.0
10,3.598420777325985,117370.51
10,4.2866308291656745,117372.02
10,5.106463363411423,117371.13
10,6.08309162161706,117370.31
10,7.246503312278104,117372.78
10,8.63242139379423,117369.96
10,10.283400960263917,117369.94
10,12.250135910369062,117373.22
10,14.593015521069628,117373.65
10,17.383978721242066,117373.84
10,20.708723001374995,117381.97
10,24.66933578465844,Infinity
10,29.387429056626132,Infinity
10,35.00787350323835,Infinity
10,41.70324681540683,Infinity
10,49.67913274669087,Infinity
10,59.180433633564235,Infinity
10,70.49889020637123,Infinity
10,83.98203958936847,Infinity
10,100.04388654834244,Infinity
10,119.1776156501521,Infinity
10,141.97073466545274,Infinity
10,169.12311419801978,Infinity
10,201.4684774537313,Infinity
10,239.9999999999994,Infinity
11,1.5,117374.5
11,1.7868800347819955,117374.89
11,2.128626839135004,117369.43
11,2.535733866900963,117371.77
11,3.0207014801905845,117373.3
11,3.598420777325985,117372.2
11,4.2866308291656745,117372.4
11,5.106463363411423,117370.47
11,6.08309162161706,117368.24
11,7.246503312278104,117371.25
11,8.63242139379423,117369.78
11,10.283400960263917,117370.8
11,12.250135910369062,117374.55
11,14.593015521069628,117375.12
11,17.383978721242066,117379.46
11,20.708723001374995,117387.24
11,24.66933578465844,Infinity
11,29.387429056626132,Infinity
11,35.00787350323835,Infinity
11,41.70324681540683,Infinity
11,49.67913274669087,Infinity
11,59.180433633564235,Infinity
11,70.49889020637123,Infinity
11,83.98203958936847,Infinity
11,100.04388654834244,Infinity
11,119.1776156501521,Infinity
11,141.97073466545274,Infinity
11,169.12311419801978,Infinity
11,201.4684774537313,Infinity
11,239.9999999999994,Infinity
13,1.5,117375.65
13,1.7868800347819955,117370.53
13,2.128626839135004,117372.17
13,2.535733866900963,117371.8
13,3.0207014801905845,117372.1
13,3.598420777325985,117371.19
13,4.2866308291656745,117372.71
13,5.106463363411423,117366.9
13,6.08309162161706,117369.5
13,7.246503312278104,117370.48
13,8.63242139379423,117372.3
13,10.283400960263917,117371.85
13,12.250135910369062,117374.53
13,14.593015521069628,117380.22
13,17.383978721242066,117391.27
13,20.708723001374995,Infinity
13,24.66933578465844,Infinity
13,29.387429056626132,Infinity
13,35.00787350323835,Infinity
13,41.70324681540683,Infinity
13,49.67913274669087,Infinity
13,59.180433633564235,Infinity
13,70.49889020637123,Infinity
13,83.98203958936847,Infinity
13,100.04388654834244,Infinity
13,119.1776156501521,Infinity
13,141.97073466545274,Infinity
13,169.12311419801978,Infinity
13,201.4684774537313,Infinity
13,239.9999999999994,Infinity
15,1.5,117373.55
15,1.7868800347819955,117371.37
15,2.128626839135004,117372.67
15,2.535733866900963,117368.71
15,3.0207014801905845,117368.11
15,3.598420777325985,117371.33
15,4.2866308291656745,117369.17
15,5.106463363411423,117370.18
15,6.08309162161706,117373.21
15,7.246503312278104,117370.92
15,8.63242139379423,117372.56
15,10.283400960263917,117372.85
15,12.250135910369062,117379.22
15,14.593015521069628,117388.17
15,17.383978721242066,Infinity
15,20.708723001374995,Infinity
15,24.66933578465844,Infinity
15,29.387429056626132,Infinity
15,35.00787350323835,Infinity
15,41.70324681540683,Infinity
15,49.67913274669087,Infinity
15,59.180433633564235,Infinity
15,70.49889020637123,Infinity
15,83.98203958936847,Infinity
15,100.04388654834244,Infinity
15,119.1776156501521,Infinity
15,141.97073466545274,Infinity
15,169.12311419801978,Infinity
15,201.4684774537313,Infinity
15,239.9999999999994,Infinity
17,1.5,117374.92
17,1.7868800347819955,117372.3
17,2.128626839135004,117372.35
17,2.535733866900963,117368.2
17,3.0207014801905845,117369.86
17,3.598420777325985,117371.12
17,4.2866308291656745,117371.62
17,5.106463363411423,117369.19
17,6.08309162161706,117370.87
17,7.246503312278104,117374.79
17,8.63242139379423,117373.39
17,10.283400960263917,117375.26
17,12.250135910369062,117384.35
17,14.593015521069628,Infinity
17,17.383978721242066,Infinity
17,20.708723001374995,Infinity
17,24.66933578465844,Infinity
17,29.387429056626132,Infinity
17,35.00787350323835,Infinity
17,41.70324681540683,Infinity
17,49.67913274669087,Infinity
17,59.180433633564235,Infinity
17,70.49889020637123,Infinity
17,83.98203958936847,Infinity
17,100.04388654834244,Infinity
17,119.1776156501521,Infinity
17,141.97073466545274,Infinity
17,169.12311419801978,Infinity
17,201.4684774537313,Infinity
17,239.9999999999994,Infinity
20,1.5,117374.52
20,1.7868800347819955,117372.6
20,2.128626839135004,117369.34
20,2.535733866900963,117369.56
20,3.0207014801905845,117368.64
20,3.598420777325985,117372.17
20,4.2866308291656745,117373.33
20,5.106463363411423,117372.46
20,6.08309162161706,117368.47
20,7.246503312278104,117369.41
20,8.63242139379423,117377.14
20,10.283400960263917,117381.24
20,12.250135910369062,Infinity
20,14.593015521069628,Infinity
20,17.383978721242066,Infinity
20,20.708723001374995,Infinity
20,24.66933578465844,Infinity
20,29.387429056626132,Infinity
20,35.00787350323835,Infinity
20,41.70324681540683,Infinity
20,49.67913274669087,Infinity
20,59.180433633564235,Infinity
20,70.49889020637123,Infinity
20,83.98203958936847,Infinity
20,100.04388654834244,Infinity
20,119.1776156501521,Infinity
20,141.97073466545274,Infinity
20,169.12311419801978,Infinity
20,201.4684774537313,Infinity
20,239.9999999999994,Infinity
23,1.5,117375.72
23,1.7868800347819955,117376.19
23,2.128626839135004,117371.07
23,2.535733866900963,117373.48
23,3.0207014801905845,117369.52
23,3.598420777325985,117369.09
23,4.2866308291656745,117372.36
23,5.106463363411423,117369.33
23,6.08309162161706,117371.96
23,7.246503312278104,117376.8
23,8.63242139379423,117378.88
23,10.283400960263917,117404.74
23,12.250135910369062,Infinity
23,14.593015521069628,Infinity
23,17.383978721242066,Infinity
23,20.708723001374995,Infinity
23,24.66933578465844,Infinity
23,29.387429056626132,Infinity
23,35.00787350323835,Infinity
23,41.70324681540683,Infinity
23,49.67913274669087,Infinity
23,59.180433633564235,Infinity
23,70.49889020637123,Infinity
23,83.98203958936847,Infinity
23,100.04388654834244,Infinity
23,119.1776156501521,Infinity
23,141.97073466545274,Infinity
23,169.12311419801978,Infinity
23,201.4684774537313,Infinity
23,239.9999999999994,Infinity
26,1.5,117373.29
26,1.7868800347819955,117373.25
26,2.128626839135004,117371.23
26,2.535733866900963,117370.23
26,3.0207014801905845,117368.08
26,3.598420777325985,117371.3
26,4.2866308291656745,117369.05
26,5.106463363411423,117371.96
26,6.08309162161706,117372.74
26,7.246503312278104,117381.72
26,8.63242139379423,117392.84
26,10.283400960263917,Infinity
26,12.250135910369062,Infinity
26,14.593015521069628,Infinity
26,17.383978721242066,Infinity
26,20.708723001374995,Infinity
26,24.66933578465844,Infinity
26,29.387429056626132,Infinity
26,35.00787350323835,Infinity
26,41.70324681540683,Infinity
26,49.67913274669087,Infinity
26,59.180433633564235,Infinity
26,70.49889020637123,Infinity
26,83.98203958936847,Infinity
26,100.04388654834244,Infinity
26,119.1776156501521,Infinity
26,141.97073466545274,Infinity
26,169.12311419801978,Infinity
26,201.4684774537313,Infinity
26,239.9999999999994,Infinity
30,1.5,117372.07
30,1.7868800347819955,117375.85
30,2.128626839135004,117372.11
30,2.535733866900963,117370.8
30,3.0207014801905845,117366.22
30,3.598420777325985,117375.11
30,4.2866308291656745,117373.62
30,5.106463363411423,117372.4
30,6.08309162161706,117375.96
30,7.246503312278104,117390.05
30,8.63242139379423,Infinity
30,10.283400960263917,Infinity
30,12.250135910369062,Infinity
30,14.593015521069628,Infinity
30,17.383978721242066,Infinity
30,20.708723001374995,Infinity
30,24.66933578465844,Infinity
30,29.387429056626132,Infinity
30,35.00787350323835,Infinity
30,41.70324681540683,Infinity
30,49.67913274669087,Infinity
30,59.180433633564235,Infinity
30,70.49889020637123,Infinity
30,83.98203958936847,Infinity
30,100.04388654834244,Infinity
30,119.1776156501521,Infinity
30,141.97073466545274,Infinity
30,169.12311419801978,Infinity
30,201.4684774537313,Infinity
30,239.9999999999994,Infinity
34,1.5,117372.14
34,1.7868800347819955,117374.14
34,2.128626839135004,117374.55
34,2.535733866900963,117369.8
34,3.0207014801905845,117369.7
34,3.598420777325985,117371.47
34,4.2866308291656745,117376.88
34,5.106463363411423,117374.74
34,6.08309162161706,117381.91
34,7.246503312278104,Infinity
34,8.63242139379423,Infinity
34,10.283400960263917,Infinity
34,12.250135910369062,Infinity
34,14.593015521069628,Infinity
34,17.383978721242066,Infinity
34,20.708723001374995,Infinity
34,24.66933578465844,Infinity
34,29.387429056626132,Infinity
34,35.00787350323835,Infinity
34,41.70324681540683,Infinity
34,49.67913274669087,Infinity
34,59.180433633564235,Infinity
34,70.49889020637123,Infinity
34,83.98203958936847,Infinity
34,100.04388654834244,Infinity
34,119.1776156501521,Infinity
34,141.97073466545274,Infinity
34,169.12311419801978,Infinity
34,201.4684774537313,Infinity
34,239.9999999999994,Infinity
39,1.5,117375.04
39,1.7868800347819955,117375.35
39,2.128626839135004,117379.73
39,2.535733866900963,117372.15
39,3.0207014801905845,117367.72
39,3.598420777325985,117372.09
39,4.2866308291656745,117374.95
39,5.106463363411423,117380.45
39,6.08309162161706,117422.66
39,7.246503312278104,Infinity
39,8.63242139379423,Infinity
39,10.283400960263917,Infinity
39,12.250135910369062,Infinity
39,14.593015521069628,Infinity
39,17.383978721242066,Infinity
39,20.708723001374995,Infinity
39,24.66933578465844,Infinity
39,29.387429056626132,Infinity
39,35.00787350323835,Infinity
39,41.70324681540683,Infinity
39,49.67913274669087,Infinity
39,59.180433633564235,Infinity
39,70.49889020637123,Infinity
39,83.98203958936847,Infinity
39,100.04388654834244,Infinity
39,119.1776156501521,Infinity
39,141.97073466545274,Infinity
39,169.12311419801978,Infinity
39,201.4684774537313,Infinity
39,239.9999999999994,Infinity
45,1.5,117372.89
45,1.7868800347819955,117375.66
45,2.128626839135004,117369.02
45,2.535733866900963,117374.59
45,3.0207014801905845,117371.92
45,3.598420777325985,117375.84
45,4.2866308291656745,117384.6
45,5.106463363411423,117406.32
45,6.08309162161706,Infinity
45,7.246503312278104,Infinity
45,8.63242139379423,Infinity
45,10.283400960263917,Infinity
45,12.250135910369062,Infinity
45,14.593015521069628,Infinity
45,17.383978721242066,Infinity
45,20.708723001374995,Infinity
45,24.66933578465844,Infinity
45,29.387429056626132,Infinity
45,35.00787350323835,Infinity
45,41.70324681540683,Infinity
45,49.67913274669087,Infinity
45,59.180433633564235,Infinity
45,70.49889020637123,Infinity
45,83.98203958936847,Infinity
45,100.04388654834244,Infinity
45,119.1776156501521,Infinity
45,141.97073466545274,Infinity
45,169.12311419801978,Infinity
45,201.4684774537313,Infinity
45,239.9999999999994,Infinity
52,1.5,117372.59
52,1.7868800347819955,117371.39
52,2.128626839135004,117370.87
52,2.535733866900963,117373.18
52,3.0207014801905845,117375.18
52,3.598420777325985,117379.87
52,4.2866308291656745,117396.7
52,5.106463363411423,Infinity
52,6.08309162161706,Infinity
52,7.246503312278104,Infinity
52,8.63242139379423,Infinity
52,10.283400960263917,Infinity
52,12.250135910369062,Infinity
52,14.593015521069628,Infinity
52,17.383978721242066,Infinity
52,20.708723001374995,Infinity
52,24.66933578465844,Infinity
52,29.387429056626132,Infinity
52,35.00787350323835,Infinity
52,41.70324681540683,Infinity
52,49.67913274669087,Infinity
52,59.180433633564235,Infinity
52,70.49889020637123,Infinity
52,83.98203958936847,Infinity
52,100.04388654834244,Infinity
52,119.1776156501521,Infinity
52,141.97073466545274,Infinity
52,169.12311419801978,Infinity
52,201.4684774537313,Infinity
52,239.9999999999994,Infinity
60,1.5,117374.08
60,1.7868800347819955,117376.76
60,2.128626839135004,117373.41
60,2.535733866900963,117372.14
60,3.0207014801905845,117376.86
60,3.598420777325985,117393.93
60,4.2866308291656745,Infinity
60,5.106463363411423,Infinity
60,6.08309162161706,Infinity
60,7.246503312278104,Infinity
60,8.63242139379423,Infinity
60,10.283400960263917,Infinity
60,12.250135910369062,Infinity
60,14.593015521069628,Infinity
60,17.383978721242066,Infinity
60,20.708723001374995,Infinity
60,24.66933578465844,Infinity
60,29.387429056626132,Infinity
60,35.00787350323835,Infinity
60,41.70324681540683,Infinity
60,49.67913274669087,Infinity
60,59.180433633564235,Infinity
60,70.49889020637123,Infinity
60,83.98203958936847,Infinity
60,100.04388654834244,Infinity
60,119.1776156501521,Infinity
60,141.97073466545274,Infinity
60,169.12311419801978,Infinity
60,201.4684774537313,Infinity
60,239.9999999999994,Infinity
69,1.5,117376.26
69,1.7868800347819955,117377.25
69,2.128626839135004,117374.73
69,2.535733866900963,117381.59
69,3.0207014801905845,117387.21
69,3.598420777325985,Infinity
69,4.2866308291656745,Infinity
69,5.106463363411423,Infinity
69,6.08309162161706,Infinity
69,7.246503312278104,Infinity
69,8.63242139379423,Infinity
69,10.283400960263917,Infinity
69,12.250135910369062,Infinity
69,14.593015521069628,Infinity
69,17.383978721242066,Infinity
69,20.708723001374995,Infinity
69,24.66933578465844,Infinity
69,29.387429056626132,Infinity
69,35.00787350323835,Infinity
69,41.70324681540683,Infinity
69,49.67913274669087,Infinity
69,59.180433633564235,Infinity
69,70.49889020637123,Infinity
69,83.98203958936847,Infinity
69,100.04388654834244,Infinity
69,119.1776156501521,Infinity
69,141.97073466545274,Infinity
69,169.12311419801978,Infinity
69,201.4684774537313,Infinity
69,239.9999999999994,Infinity
79,1.5,117376.45
79,1.7868800347819955,117378.69
79,2.128626839135004,117378.05
79,2.535733866900963,117385.71
79,3.0207014801905845,117463.81
79,3.598420777325985,Infinity
79,4.2866308291656745,Infinity
79,5.106463363411423,Infinity
79,6.08309162161706,Infinity
79,7.246503312278104,Infinity
79,8.63242139379423,Infinity
79,10.283400960263917,Infinity
79,12.250135910369062,Infinity
79,14.593015521069628,Infinity
79,17.383978721242066,Infinity
79,20.708723001374995,Infinity
79,24.66933578465844,Infinity
79,29.387429056626132,Infinity
79,35.00787350323835,Infinity
79,41.70324681540683,Infinity
79,49.67913274669087,Infinity
79,59.180433633564235,Infinity
79,70.49889020637123,Infinity
79,83.98203958936847,Infinity
79,100.04388654834244,Infinity
79,119.1776156501521,Infinity
79,141.97073466545274,Infinity
79,169.12311419801978,Infinity
79,201.4684774537313,Infinity
79,239.9999999999994,Infinity
91,1.5,117374.22
91,1.7868800347819955,117382.33
91,2.128626839135004,117381.86
91,2.535733866900963,117421.0
91,3.0207014801905845,Infinity
91,3.598420777325985,Infinity
91,4.2866308291656745,Infinity
91,5.106463363411423,Infinity
91,6.08309162161706,Infinity
91,7.246503312278104,Infinity
91,8.63242139379423,Infinity
91,10.283400960263917,Infinity
91,12.250135910369062,Infinity
91,14.593015521069628,Infinity
91,17.383978721242066,Infinity
91,20.708723001374995,Infinity
91,24.66933578465844,Infinity
91,29.387429056626132,Infinity
91,35.00787350323835,Infinity
91,41.70324681540683,Infinity
91,49.67913274669087,Infinity
91,59.180433633564235,Infinity
91,70.49889020637123,Infinity
91,83.98203958936847,Infinity
91,100.04388654834244,Infinity
91,119.1776156501521,Infinity
91,141.97073466545274,Infinity
91,169.12311419801978,Infinity
91,201.4684774537313,Infinity
91,239.9999999999994,Infinity
105,1.5,117377.43
105,1.7868800347819955,117384.81
105,2.128626839135004,117403.98
105,2.535733866900963,Infinity
105,3.0207014801905845,Infinity
105,3.598420777325985,Infinity
105,4.2866308291656745,Infinity
105,5.106463363411423,Infinity
105,6.08309162161706,Infinity
105,7.246503312278104,Infinity
105,8.63242139379423,Infinity
105,10.283400960263917,Infinity
105,12.250135910369062,Infinity
105,14.593015521069628,Infinity
105,17.383978721242066,Infinity
105,20.708723001374995,Infinity
105,24.66933578465844,Infinity
105,29.387429056626132,Infinity
105,35.00787350323835,Infinity
105,41.70324681540683,Infinity
105,49.67913274669087,Infinity
105,59.180433633564235,Infinity
105,70.49889020637123,Infinity
105,83.98203958936847,Infinity
105,100.04388654834244,Infinity
105,119.1776156501521,Infinity
105,141.97073466545274,Infinity
105,169.12311419801978,Infinity
105,201.4684774537313,Infinity
105,239.9999999999994,Infinity
121,1.5,117382.82
121,1.7868800347819955,117401.12
121,2.128626839135004,Infinity
121,2.535733866900963,Infinity
121,3.0207014801905845,Infinity
121,3.598420777325985,Infinity
121,4.2866308291656745,Infinity
121,5.106463363411423,Infinity
121,6.08309162161706,Infinity
121,7.246503312278104,Infinity
121,8.63242139379423,Infinity
121,10.283400960263917,Infinity
121,12.250135910369062,Infinity
121,14.593015521069628,Infinity
121,17.383978721242066,Infinity
121,20.708723001374995,Infinity
121,24.66933578465844,Infinity
121,29.387429056626132,Infinity
121,35.00787350323835,Infinity
121,41.70324681540683,Infinity
121,49.67913274669087,Infinity
121,59.180433633564235,Infinity
121,70.49889020637123,Infinity
121,83.98203958936847,Infinity
121,100.04388654834244,Infinity
121,119.1776156501521,Infinity
121,141.97073466545274,Infinity
121,169.12311419801978,Infinity
121,201.4684774537313,Infinity
121,239.9999999999994,Infinity
139,1.5,117392.34
139,1.7868800347819955,Infinity
139,2.128626839135004,Infinity
139,2.535733866900963,Infinity
139,3.0207014801905845,Infinity
139,3.598420777325985,Infinity
139,4.2866308291656745,Infinity
139,5.106463363411423,Infinity
139,6.08309162161706,Infinity
139,7.246503312278104,Infinity
139,8.63242139379423,Infinity
139,10.283400960263917,Infinity
139,12.250135910369062,Infinity
139,14.593015521069628,Infinity
139,17.383978721242066,Infinity
139,20.708723001374995,Infinity
139,24.66933578465844,Infinity
139,29.387429056626132,Infinity
139,35.00787350323835,Infinity
139,41.70324681540683,Infinity
139,49.67913274669087,Infinity
139,59.180433633564235,Infinity
139,70.49889020637123,Infinity
139,83.98203958936847,Infinity
139,100.04388654834244,Infinity
139,119.1776156501521,Infinity
139,141.97073466545274,Infinity
139,169.12311419801978,Infinity
139,201.4684774537313,Infinity
139,239.9999999999994,Infinity
160,1.5,117611.14
160,1.7868800347819955,Infinity
160,2.128626839135004,Infinity
160,2.535733866900963,Infinity
160,3.0207014801905845,Infinity
160,3.598420777325985,Infinity
160,4.2866308291656745,Infinity
160,5.106463363411423,Infinity
160,6.08309162161706,Infinity
160,7.246503312278104,Infinity
160,8.63242139379423,Infinity
160,10.283400960263917,Infinity
160,12.250135910369062,Infinity
160,14.593015521069628,Infinity
160,17.383978721242066,Infinity
160,20.708723001374995,Infinity
160,24.66933578465844,Infinity
160,29.387429056626132,Infinity
160,35.00787350323835,Infinity
160,41.70324681540683,Infinity
160,49.67913274669087,Infinity
160,59.180433633564235,Infinity
160,70.49889020637123,Infinity
160,83.98203958936847,Infinity
160,100.04388654834244,Infinity
160,119.1776156501521,Infinity
160,141.97073466545274,Infinity
160,169.12311419801978,Infinity
160,201.4684774537313,Infinity
160,239.9999999999994,Infinity
