firstPhaseRestarts,firstPhaseTime,result
1,1.5,117395.56
1,1.7034708530003397,117398.16
1,1.9345419646811368,117395.47
1,2.196957233826886,117396.38
1,2.4949684087415682,117397.8
1,2.833403975631933,117396.75
1,3.217747391509522,117398.24
1,3.654225929169562,117397.14
1,4.149911573745622,117395.45
1,4.712835605602958,117396.77
1,5.352118726084562,117397.94
1,6.078118834454907,117397.07
1,6.902598850377554,117398.25
1,7.838917301047878,117395.78
1,8.902244760943432,117396.2
1,10.109809651028076,117396.93
1,11.481177379938575,117396.05
1,13.038567349901447,117396.16
1,14.807212963625998,117395.2
1,16.815770465137113,117398.05
1,19.09678323873669,117395.51
1,21.687209088835587,117397.03
1,24.629019043836987,117397.01
1,27.96987738611107,117395.74
1,31.76391392615569,117396.83
1,36.07260103361187,117397.23
1,40.96574963511183,117395.54
1,46.522640316481535,117396.64
1,52.833307855829865,117399.01
1,60.000000000000036,Infinity
2,1.5,117393.01
2,1.7034708530003397,117396.47
2,1.9345419646811368,117394.64
2,2.196957233826886,117393.01
2,2.4949684087415682,117394.02
2,2.833403975631933,117393.31
2,3.217747391509522,117395.36
2,3.654225929169562,117392.39
2,4.149911573745622,117392.46
2,4.712835605602958,117393.85
2,5.352118726084562,117391.12
2,6.078118834454907,117392.73
2,6.902598850377554,117392.19
2,7.838917301047878,117393.29
2,8.902244760943432,117392.15
2,10.109809651028076,117394.13
2,11.481177379938575,117393.78
2,13.038567349901447,117393.24
2,14.807212963625998,117392.1
2,16.815770465137113,117394.51
2,19.09678323873669,117395.82
2,21.687209088835587,117398.06
2,24.629019043836987,117397.83
2,27.96987738611107,117400.13
2,31.76391392615569,Infinity
2,36.07260103361187,Infinity
2,40.96574963511183,Infinity
2,46.522640316481535,Infinity
2,52.833307855829865,Infinity
2,60.000000000000036,Infinity
3,1.5,117399.73
3,1.7034708530003397,117400.03
3,1.9345419646811368,117396.76
3,2.196957233826886,117401.25
3,2.4949684087415682,117395.85
3,2.833403975631933,117399.72
3,3.217747391509522,117399.92
3,3.654225929169562,117397.96
3,4.149911573745622,117397.82
3,4.712835605602958,117398.79
3,5.352118726084562,117396.96
3,6.078118834454907,117398.09
3,6.902598850377554,117394.96
3,7.838917301047878,117397.76
3,8.902244760943432,117397.84
3,10.109809651028076,117396.53
3,11.481177379938575,117398.9
3,13.038567349901447,117401.55
3,14.807212963625998,117402.75
3,16.815770465137113,Infinity
3,19.09678323873669,Infinity
3,21.687209088835587,Infinity
3,24.629019043836987,Infinity
3,27.96987738611107,Infinity
3,31.76391392615569,Infinity
3,36.07260103361187,Infinity
3,40.96574963511183,Infinity
3,46.522640316481535,Infinity
3,52.833307855829865,Infinity
3,60.000000000000036,Infinity
4,1.5,117398.52
4,1.7034708530003397,117399.31
4,1.9345419646811368,117400.4
4,2.196957233826886,117397.66
4,2.4949684087415682,117397.87
4,2.833403975631933,117399.51
4,3.217747391509522,117397.45
4,3.654225929169562,117399.0
4,4.149911573745622,117397.41
4,4.712835605602958,117401.36
4,5.352118726084562,117398.81
4,6.078118834454907,117396.5
4,6.902598850377554,117400.12
4,7.838917301047878,117402.29
4,8.902244760943432,117402.97
4,10.109809651028076,117406.61
4,11.481177379938575,117407.46
4,13.038567349901447,Infinity
4,14.807212963625998,Infinity
4,16.815770465137113,Infinity
4,19.09678323873669,Infinity
4,21.687209088835587,Infinity
4,24.629019043836987,Infinity
4,27.96987738611107,Infinity
4,31.76391392615569,Infinity
4,36.07260103361187,Infinity
4,40.96574963511183,Infinity
4,46.522640316481535,Infinity
4,52.833307855829865,Infinity
4,60.000000000000036,Infinity
5,1.5,117400.92
5,1.7034708530003397,117400.13
5,1.9345419646811368,117401.61
5,2.196957233826886,117400.97
5,2.4949684087415682,117404.52
5,2.833403975631933,117399.51
5,3.217747391509522,117397.81
5,3.654225929169562,117400.41
5,4.149911573745622,117396.47
5,4.712835605602958,117399.37
5,5.352118726084562,117400.2
5,6.078118834454907,117400.07
5,6.902598850377554,117402.71
5,7.838917301047878,117405.01
5,8.902244760943432,117417.92
5,10.109809651028076,Infinity
5,11.481177379938575,Infinity
5,13.038567349901447,Infinity
5,14.807212963625998,Infinity
5,16.815770465137113,Infinity
5,19.09678323873669,Infinity
5,21.687209088835587,Infinity
5,24.629019043836987,Infinity
5,27.96987738611107,Infinity
5,31.76391392615569,Infinity
5,36.07260103361187,Infinity
5,40.96574963511183,Infinity
5,46.522640316481535,Infinity
5,52.833307855829865,Infinity
5,60.000000000000036,Infinity
6,1.5,117395.67
6,1.7034708530003397,117395.17
6,1.9345419646811368,117395.82
6,2.196957233826886,117395.42
6,2.4949684087415682,117393.89
6,2.833403975631933,117399.06
6,3.217747391509522,117396.15
6,3.654225929169562,117402.06
6,4.149911573745622,117404.57
6,4.712835605602958,117416.36
6,5.352118726084562,117404.32
6,6.078118834454907,117412.14
6,6.902598850377554,117419.31
6,7.838917301047878,Infinity
6,8.902244760943432,Infinity
6,10.109809651028076,Infinity
6,11.481177379938575,Infinity
6,13.038567349901447,Infinity
6,14.807212963625998,Infinity
6,16.815770465137113,Infinity
6,19.09678323873669,Infinity
6,21.687209088835587,Infinity
6,24.629019043836987,Infinity
6,27.96987738611107,Infinity
6,31.76391392615569,Infinity
6,36.07260103361187,Infinity
6,40.96574963511183,Infinity
6,46.522640316481535,Infinity
6,52.833307855829865,Infinity
6,60.000000000000036,Infinity
7,1.5,117399.11
7,1.7034708530003397,117400.93
7,1.9345419646811368,117401.32
7,2.196957233826886,117403.17
7,2.4949684087415682,117405.87
7,2.833403975631933,117407.21
7,3.217747391509522,117406.13
7,3.654225929169562,117411.4
7,4.149911573745622,117413.99
7,4.712835605602958,117414.79
7,5.352118726084562,Infinity
7,6.078118834454907,Infinity
7,6.902598850377554,Infinity
7,7.838917301047878,Infinity
7,8.902244760943432,Infinity
7,10.109809651028076,Infinity
7,11.481177379938575,Infinity
7,13.038567349901447,Infinity
7,14.807212963625998,Infinity
7,16.815770465137113,Infinity
7,19.09678323873669,Infinity
7,21.687209088835587,Infinity
7,24.629019043836987,Infinity
7,27.96987738611107,Infinity
7,31.76391392615569,Infinity
7,36.07260103361187,Infinity
7,40.96574963511183,Infinity
7,46.522640316481535,Infinity
7,52.833307855829865,Infinity
7,60.000000000000036,Infinity
8,1.5,117400.28
8,1.7034708530003397,117401.87
8,1.9345419646811368,117403.62
8,2.196957233826886,117404.9
8,2.4949684087415682,117405.06
8,2.833403975631933,117406.71
8,3.217747391509522,117408.51
8,3.654225929169562,117406.66
8,4.149911573745622,117415.01
8,4.712835605602958,Infinity
8,5.352118726084562,Infinity
8,6.078118834454907,Infinity
8,6.902598850377554,Infinity
8,7.838917301047878,Infinity
8,8.902244760943432,Infinity
8,10.109809651028076,Infinity
8,11.481177379938575,Infinity
8,13.038567349901447,Infinity
8,14.807212963625998,Infinity
8,16.815770465137113,Infinity
8,19.09678323873669,Infinity
8,21.687209088835587,Infinity
8,24.629019043836987,Infinity
8,27.96987738611107,Infinity
8,31.76391392615569,Infinity
8,36.07260103361187,Infinity
8,40.96574963511183,Infinity
8,46.522640316481535,Infinity
8,52.833307855829865,Infinity
8,60.000000000000036,Infinity
9,1.5,117400.69
9,1.7034708530003397,117403.51
9,1.9345419646811368,117402.84
9,2.196957233826886,117403.95
9,2.4949684087415682,117419.06
9,2.833403975631933,117405.98
9,3.217747391509522,117410.99
9,3.654225929169562,117410.51
9,4.149911573745622,117419.29
9,4.712835605602958,Infinity
9,5.352118726084562,Infinity
9,6.078118834454907,Infinity
9,6.902598850377554,Infinity
9,7.838917301047878,Infinity
9,8.902244760943432,Infinity
9,10.109809651028076,Infinity
9,11.481177379938575,Infinity
9,13.038567349901447,Infinity
9,14.807212963625998,Infinity
9,16.815770465137113,Infinity
9,19.09678323873669,Infinity
9,21.687209088835587,Infinity
9,24.629019043836987,Infinity
9,27.96987738611107,Infinity
9,31.76391392615569,Infinity
9,36.07260103361187,Infinity
9,40.96574963511183,Infinity
9,46.522640316481535,Infinity
9,52.833307855829865,Infinity
9,60.000000000000036,Infinity
10,1.5,117403.19
10,1.7034708530003397,117404.06
10,1.9345419646811368,117405.0
10,2.196957233826886,117406.2
10,2.4949684087415682,117410.81
10,2.833403975631933,117414.34
10,3.217747391509522,117414.4
10,3.654225929169562,117423.53
10,4.149911573745622,Infinity
10,4.712835605602958,Infinity
10,5.352118726084562,Infinity
10,6.078118834454907,Infinity
10,6.902598850377554,Infinity
10,7.838917301047878,Infinity
10,8.902244760943432,Infinity
10,10.109809651028076,Infinity
10,11.481177379938575,Infinity
10,13.038567349901447,Infinity
10,14.807212963625998,Infinity
10,16.815770465137113,Infinity
10,19.09678323873669,Infinity
10,21.687209088835587,Infinity
10,24.629019043836987,Infinity
10,27.96987738611107,Infinity
10,31.76391392615569,Infinity
10,36.07260103361187,Infinity
10,40.96574963511183,Infinity
10,46.522640316481535,Infinity
10,52.833307855829865,Infinity
10,60.000000000000036,Infinity
11,1.5,117401.24
11,1.7034708530003397,117405.6
11,1.9345419646811368,117406.11
11,2.196957233826886,117407.29
11,2.4949684087415682,117414.08
11,2.833403975631933,117414.53
11,3.217747391509522,117428.01
11,3.654225929169562,Infinity
11,4.149911573745622,Infinity
11,4.712835605602958,Infinity
11,5.352118726084562,Infinity
11,6.078118834454907,Infinity
11,6.902598850377554,Infinity
11,7.838917301047878,Infinity
11,8.902244760943432,Infinity
11,10.109809651028076,Infinity
11,11.481177379938575,Infinity
11,13.038567349901447,Infinity
11,14.807212963625998,Infinity
11,16.815770465137113,Infinity
11,19.09678323873669,Infinity
11,21.687209088835587,Infinity
11,24.629019043836987,Infinity
11,27.96987738611107,Infinity
11,31.76391392615569,Infinity
11,36.07260103361187,Infinity
11,40.96574963511183,Infinity
11,46.522640316481535,Infinity
11,52.833307855829865,Infinity
11,60.000000000000036,Infinity
12,1.5,117402.12
12,1.7034708530003397,117407.33
12,1.9345419646811368,117412.92
12,2.196957233826886,117411.0
12,2.4949684087415682,117412.44
12,2.833403975631933,117418.13
12,3.217747391509522,117430.03
12,3.654225929169562,Infinity
12,4.149911573745622,Infinity
12,4.712835605602958,Infinity
12,5.352118726084562,Infinity
12,6.078118834454907,Infinity
12,6.902598850377554,Infinity
12,7.838917301047878,Infinity
12,8.902244760943432,Infinity
12,10.109809651028076,Infinity
12,11.481177379938575,Infinity
12,13.038567349901447,Infinity
12,14.807212963625998,Infinity
12,16.815770465137113,Infinity
12,19.09678323873669,Infinity
12,21.687209088835587,Infinity
12,24.629019043836987,Infinity
12,27.96987738611107,Infinity
12,31.76391392615569,Infinity
12,36.07260103361187,Infinity
12,40.96574963511183,Infinity
12,46.522640316481535,Infinity
12,52.833307855829865,Infinity
12,60.000000000000036,Infinity
13,1.5,117403.55
13,1.7034708530003397,117410.01
13,1.9345419646811368,117413.03
13,2.196957233826886,117413.36
13,2.4949684087415682,117416.04
13,2.833403975631933,117425.42
13,3.217747391509522,Infinity
13,3.654225929169562,Infinity
13,4.149911573745622,Infinity
13,4.712835605602958,Infinity
13,5.352118726084562,Infinity
13,6.078118834454907,Infinity
13,6.902598850377554,Infinity
13,7.838917301047878,Infinity
13,8.902244760943432,Infinity
13,10.109809651028076,Infinity
13,11.481177379938575,Infinity
13,13.038567349901447,Infinity
13,14.807212963625998,Infinity
13,16.815770465137113,Infinity
13,19.09678323873669,Infinity
13,21.687209088835587,Infinity
13,24.629019043836987,Infinity
13,27.96987738611107,Infinity
13,31.76391392615569,Infinity
13,36.07260103361187,Infinity
13,40.96574963511183,Infinity
13,46.522640316481535,Infinity
13,52.833307855829865,Infinity
13,60.000000000000036,Infinity
14,1.5,117402.82
14,1.7034708530003397,117408.52
14,1.9345419646811368,117411.21
14,2.196957233826886,117420.09
14,2.4949684087415682,117436.23
14,2.833403975631933,Infinity
14,3.217747391509522,Infinity
14,3.654225929169562,Infinity
14,4.149911573745622,Infinity
14,4.712835605602958,Infinity
14,5.352118726084562,Infinity
14,6.078118834454907,Infinity
14,6.902598850377554,Infinity
14,7.838917301047878,Infinity
14,8.902244760943432,Infinity
14,10.109809651028076,Infinity
14,11.481177379938575,Infinity
14,13.038567349901447,Infinity
14,14.807212963625998,Infinity
14,16.815770465137113,Infinity
14,19.09678323873669,Infinity
14,21.687209088835587,Infinity
14,24.629019043836987,Infinity
14,27.96987738611107,Infinity
14,31.76391392615569,Infinity
14,36.07260103361187,Infinity
14,40.96574963511183,Infinity
14,46.522640316481535,Infinity
14,52.833307855829865,Infinity
14,60.000000000000036,Infinity
15,1.5,117411.71
15,1.7034708530003397,117423.56
15,1.9345419646811368,Infinity
15,2.196957233826886,Infinity
15,2.4949684087415682,Infinity
15,2.833403975631933,Infinity
15,3.217747391509522,Infinity
15,3.654225929169562,Infinity
15,4.149911573745622,Infinity
15,4.712835605602958,Infinity
15,5.352118726084562,Infinity
15,6.078118834454907,Infinity
15,6.902598850377554,Infinity
15,7.838917301047878,Infinity
15,8.902244760943432,Infinity
15,10.109809651028076,Infinity
15,11.481177379938575,Infinity
15,13.038567349901447,Infinity
15,14.807212963625998,Infinity
15,16.815770465137113,Infinity
15,19.09678323873669,Infinity
15,21.687209088835587,Infinity
15,24.629019043836987,Infinity
15,27.96987738611107,Infinity
15,31.76391392615569,Infinity
15,36.07260103361187,Infinity
15,40.96574963511183,Infinity
15,46.522640316481535,Infinity
15,52.833307855829865,Infinity
15,60.000000000000036,Infinity
16,1.5,117414.25
16,1.7034708530003397,117419.56
16,1.9345419646811368,Infinity
16,2.196957233826886,Infinity
16,2.4949684087415682,Infinity
16,2.833403975631933,Infinity
16,3.217747391509522,Infinity
16,3.654225929169562,Infinity
16,4.149911573745622,Infinity
16,4.712835605602958,Infinity
16,5.352118726084562,Infinity
16,6.078118834454907,Infinity
16,6.902598850377554,Infinity
16,7.838917301047878,Infinity
16,8.902244760943432,Infinity
16,10.109809651028076,Infinity
16,11.481177379938575,Infinity
16,13.038567349901447,Infinity
16,14.807212963625998,Infinity
16,16.815770465137113,Infinity
16,19.09678323873669,Infinity
16,21.687209088835587,Infinity
16,24.629019043836987,Infinity
16,27.96987738611107,Infinity
16,31.76391392615569,Infinity
16,36.07260103361187,Infinity
16,40.96574963511183,Infinity
16,46.522640316481535,Infinity
16,52.833307855829865,Infinity
16,60.000000000000036,Infinity
17,1.5,117413.04
17,1.7034708530003397,117431.09
17,1.9345419646811368,Infinity
17,2.196957233826886,Infinity
17,2.4949684087415682,Infinity
17,2.833403975631933,Infinity
17,3.217747391509522,Infinity
17,3.654225929169562,Infinity
17,4.149911573745622,Infinity
17,4.712835605602958,Infinity
17,5.352118726084562,Infinity
17,6.078118834454907,Infinity
17,6.902598850377554,Infinity
17,7.838917301047878,Infinity
17,8.902244760943432,Infinity
17,10.109809651028076,Infinity
17,11.481177379938575,Infinity
17,13.038567349901447,Infinity
17,14.807212963625998,Infinity
17,16.815770465137113,Infinity
17,19.09678323873669,Infinity
17,21.687209088835587,Infinity
17,24.629019043836987,Infinity
17,27.96987738611107,Infinity
17,31.76391392615569,Infinity
17,36.07260103361187,Infinity
17,40.96574963511183,Infinity
17,46.522640316481535,Infinity
17,52.833307855829865,Infinity
17,60.000000000000036,Infinity
18,1.5,117420.24
18,1.7034708530003397,Infinity
18,1.9345419646811368,Infinity
18,2.196957233826886,Infinity
18,2.4949684087415682,Infinity
18,2.833403975631933,Infinity
18,3.217747391509522,Infinity
18,3.654225929169562,Infinity
18,4.149911573745622,Infinity
18,4.712835605602958,Infinity
18,5.352118726084562,Infinity
18,6.078118834454907,Infinity
18,6.902598850377554,Infinity
18,7.838917301047878,Infinity
18,8.902244760943432,Infinity
18,10.109809651028076,Infinity
18,11.481177379938575,Infinity
18,13.038567349901447,Infinity
18,14.807212963625998,Infinity
18,16.815770465137113,Infinity
18,19.09678323873669,Infinity
18,21.687209088835587,Infinity
18,24.629019043836987,Infinity
18,27.96987738611107,Infinity
18,31.76391392615569,Infinity
18,36.07260103361187,Infinity
18,40.96574963511183,Infinity
18,46.522640316481535,Infinity
18,52.833307855829865,Infinity
18,60.000000000000036,Infinity
19,1.5,117426.08
19,1.7034708530003397,Infinity
19,1.9345419646811368,Infinity
19,2.196957233826886,Infinity
19,2.4949684087415682,Infinity
19,2.833403975631933,Infinity
19,3.217747391509522,Infinity
19,3.654225929169562,Infinity
19,4.149911573745622,Infinity
19,4.712835605602958,Infinity
19,5.352118726084562,Infinity
19,6.078118834454907,Infinity
19,6.902598850377554,Infinity
19,7.838917301047878,Infinity
19,8.902244760943432,Infinity
19,10.109809651028076,Infinity
19,11.481177379938575,Infinity
19,13.038567349901447,Infinity
19,14.807212963625998,Infinity
19,16.815770465137113,Infinity
19,19.09678323873669,Infinity
19,21.687209088835587,Infinity
19,24.629019043836987,Infinity
19,27.96987738611107,Infinity
19,31.76391392615569,Infinity
19,36.07260103361187,Infinity
19,40.96574963511183,Infinity
19,46.522640316481535,Infinity
19,52.833307855829865,Infinity
19,60.000000000000036,Infinity
20,1.5,117425.91
20,1.7034708530003397,Infinity
20,1.9345419646811368,Infinity
20,2.196957233826886,Infinity
20,2.4949684087415682,Infinity
20,2.833403975631933,Infinity
20,3.217747391509522,Infinity
20,3.654225929169562,Infinity
20,4.149911573745622,Infinity
20,4.712835605602958,Infinity
20,5.352118726084562,Infinity
20,6.078118834454907,Infinity
20,6.902598850377554,Infinity
20,7.838917301047878,Infinity
20,8.902244760943432,Infinity
20,10.109809651028076,Infinity
20,11.481177379938575,Infinity
20,13.038567349901447,Infinity
20,14.807212963625998,Infinity
20,16.815770465137113,Infinity
20,19.09678323873669,Infinity
20,21.687209088835587,Infinity
20,24.629019043836987,Infinity
20,27.96987738611107,Infinity
20,31.76391392615569,Infinity
20,36.07260103361187,Infinity
20,40.96574963511183,Infinity
20,46.522640316481535,Infinity
20,52.833307855829865,Infinity
20,60.000000000000036,Infinity
21,1.5,117438.16
21,1.7034708530003397,Infinity
21,1.9345419646811368,Infinity
21,2.196957233826886,Infinity
21,2.4949684087415682,Infinity
21,2.833403975631933,Infinity
21,3.217747391509522,Infinity
21,3.654225929169562,Infinity
21,4.149911573745622,Infinity
21,4.712835605602958,Infinity
21,5.352118726084562,Infinity
21,6.078118834454907,Infinity
21,6.902598850377554,Infinity
21,7.838917301047878,Infinity
21,8.902244760943432,Infinity
21,10.109809651028076,Infinity
21,11.481177379938575,Infinity
21,13.038567349901447,Infinity
21,14.807212963625998,Infinity
21,16.815770465137113,Infinity
21,19.09678323873669,Infinity
21,21.687209088835587,Infinity
21,24.629019043836987,Infinity
21,27.96987738611107,Infinity
21,31.76391392615569,Infinity
21,36.07260103361187,Infinity
21,40.96574963511183,Infinity
21,46.522640316481535,Infinity
21,52.833307855829865,Infinity
21,60.000000000000036,Infinity
22,1.5,Infinity
22,1.7034708530003397,Infinity
22,1.9345419646811368,Infinity
22,2.196957233826886,Infinity
22,2.4949684087415682,Infinity
22,2.833403975631933,Infinity
22,3.217747391509522,Infinity
22,3.654225929169562,Infinity
22,4.149911573745622,Infinity
22,4.712835605602958,Infinity
22,5.352118726084562,Infinity
22,6.078118834454907,Infinity
22,6.902598850377554,Infinity
22,7.838917301047878,Infinity
22,8.902244760943432,Infinity
22,10.109809651028076,Infinity
22,11.481177379938575,Infinity
22,13.038567349901447,Infinity
22,14.807212963625998,Infinity
22,16.815770465137113,Infinity
22,19.09678323873669,Infinity
22,21.687209088835587,Infinity
22,24.629019043836987,Infinity
22,27.96987738611107,Infinity
22,31.76391392615569,Infinity
22,36.07260103361187,Infinity
22,40.96574963511183,Infinity
22,46.522640316481535,Infinity
22,52.833307855829865,Infinity
22,60.000000000000036,Infinity
23,1.5,Infinity
23,1.7034708530003397,Infinity
23,1.9345419646811368,Infinity
23,2.196957233826886,Infinity
23,2.4949684087415682,Infinity
23,2.833403975631933,Infinity
23,3.217747391509522,Infinity
23,3.654225929169562,Infinity
23,4.149911573745622,Infinity
23,4.712835605602958,Infinity
23,5.352118726084562,Infinity
23,6.078118834454907,Infinity
23,6.902598850377554,Infinity
23,7.838917301047878,Infinity
23,8.902244760943432,Infinity
23,10.109809651028076,Infinity
23,11.481177379938575,Infinity
23,13.038567349901447,Infinity
23,14.807212963625998,Infinity
23,16.815770465137113,Infinity
23,19.09678323873669,Infinity
23,21.687209088835587,Infinity
23,24.629019043836987,Infinity
23,27.96987738611107,Infinity
23,31.76391392615569,Infinity
23,36.07260103361187,Infinity
23,40.96574963511183,Infinity
23,46.522640316481535,Infinity
23,52.833307855829865,Infinity
23,60.000000000000036,Infinity
24,1.5,Infinity
24,1.7034708530003397,Infinity
24,1.9345419646811368,Infinity
24,2.196957233826886,Infinity
24,2.4949684087415682,Infinity
24,2.833403975631933,Infinity
24,3.217747391509522,Infinity
24,3.654225929169562,Infinity
24,4.149911573745622,Infinity
24,4.712835605602958,Infinity
24,5.352118726084562,Infinity
24,6.078118834454907,Infinity
24,6.902598850377554,Infinity
24,7.838917301047878,Infinity
24,8.902244760943432,Infinity
24,10.109809651028076,Infinity
24,11.481177379938575,Infinity
24,13.038567349901447,Infinity
24,14.807212963625998,Infinity
24,16.815770465137113,Infinity
24,19.09678323873669,Infinity
24,21.687209088835587,Infinity
24,24.629019043836987,Infinity
24,27.96987738611107,Infinity
24,31.76391392615569,Infinity
24,36.07260103361187,Infinity
24,40.96574963511183,Infinity
24,46.522640316481535,Infinity
24,52.833307855829865,Infinity
24,60.000000000000036,Infinity
25,1.5,Infinity
25,1.7034708530003397,Infinity
25,1.9345419646811368,Infinity
25,2.196957233826886,Infinity
25,2.4949684087415682,Infinity
25,2.833403975631933,Infinity
25,3.217747391509522,Infinity
25,3.654225929169562,Infinity
25,4.149911573745622,Infinity
25,4.712835605602958,Infinity
25,5.352118726084562,Infinity
25,6.078118834454907,Infinity
25,6.902598850377554,Infinity
25,7.838917301047878,Infinity
25,8.902244760943432,Infinity
25,10.109809651028076,Infinity
25,11.481177379938575,Infinity
25,13.038567349901447,Infinity
25,14.807212963625998,Infinity
25,16.815770465137113,Infinity
25,19.09678323873669,Infinity
25,21.687209088835587,Infinity
25,24.629019043836987,Infinity
25,27.96987738611107,Infinity
25,31.76391392615569,Infinity
25,36.07260103361187,Infinity
25,40.96574963511183,Infinity
25,46.522640316481535,Infinity
25,52.833307855829865,Infinity
25,60.000000000000036,Infinity
26,1.5,Infinity
26,1.7034708530003397,Infinity
26,1.9345419646811368,Infinity
26,2.196957233826886,Infinity
26,2.4949684087415682,Infinity
26,2.833403975631933,Infinity
26,3.217747391509522,Infinity
26,3.654225929169562,Infinity
26,4.149911573745622,Infinity
26,4.712835605602958,Infinity
26,5.352118726084562,Infinity
26,6.078118834454907,Infinity
26,6.902598850377554,Infinity
26,7.838917301047878,Infinity
26,8.902244760943432,Infinity
26,10.109809651028076,Infinity
26,11.481177379938575,Infinity
26,13.038567349901447,Infinity
26,14.807212963625998,Infinity
26,16.815770465137113,Infinity
26,19.09678323873669,Infinity
26,21.687209088835587,Infinity
26,24.629019043836987,Infinity
26,27.96987738611107,Infinity
26,31.76391392615569,Infinity
26,36.07260103361187,Infinity
26,40.96574963511183,Infinity
26,46.522640316481535,Infinity
26,52.833307855829865,Infinity
26,60.000000000000036,Infinity
27,1.5,Infinity
27,1.7034708530003397,Infinity
27,1.9345419646811368,Infinity
27,2.196957233826886,Infinity
27,2.4949684087415682,Infinity
27,2.833403975631933,Infinity
27,3.217747391509522,Infinity
27,3.654225929169562,Infinity
27,4.149911573745622,Infinity
27,4.712835605602958,Infinity
27,5.352118726084562,Infinity
27,6.078118834454907,Infinity
27,6.902598850377554,Infinity
27,7.838917301047878,Infinity
27,8.902244760943432,Infinity
27,10.109809651028076,Infinity
27,11.481177379938575,Infinity
27,13.038567349901447,Infinity
27,14.807212963625998,Infinity
27,16.815770465137113,Infinity
27,19.09678323873669,Infinity
27,21.687209088835587,Infinity
27,24.629019043836987,Infinity
27,27.96987738611107,Infinity
27,31.76391392615569,Infinity
27,36.07260103361187,Infinity
27,40.96574963511183,Infinity
27,46.522640316481535,Infinity
27,52.833307855829865,Infinity
27,60.000000000000036,Infinity
28,1.5,Infinity
28,1.7034708530003397,Infinity
28,1.9345419646811368,Infinity
28,2.196957233826886,Infinity
28,2.4949684087415682,Infinity
28,2.833403975631933,Infinity
28,3.217747391509522,Infinity
28,3.654225929169562,Infinity
28,4.149911573745622,Infinity
28,4.712835605602958,Infinity
28,5.352118726084562,Infinity
28,6.078118834454907,Infinity
28,6.902598850377554,Infinity
28,7.838917301047878,Infinity
28,8.902244760943432,Infinity
28,10.109809651028076,Infinity
28,11.481177379938575,Infinity
28,13.038567349901447,Infinity
28,14.807212963625998,Infinity
28,16.815770465137113,Infinity
28,19.09678323873669,Infinity
28,21.687209088835587,Infinity
28,24.629019043836987,Infinity
28,27.96987738611107,Infinity
28,31.76391392615569,Infinity
28,36.07260103361187,Infinity
28,40.96574963511183,Infinity
28,46.522640316481535,Infinity
28,52.833307855829865,Infinity
28,60.000000000000036,Infinity
29,1.5,Infinity
29,1.7034708530003397,Infinity
29,1.9345419646811368,Infinity
29,2.196957233826886,Infinity
29,2.4949684087415682,Infinity
29,2.833403975631933,Infinity
29,3.217747391509522,Infinity
29,3.654225929169562,Infinity
29,4.149911573745622,Infinity
29,4.712835605602958,Infinity
29,5.352118726084562,Infinity
29,6.078118834454907,Infinity
29,6.902598850377554,Infinity
29,7.838917301047878,Infinity
29,8.902244760943432,Infinity
29,10.109809651028076,Infinity
29,11.481177379938575,Infinity
29,13.038567349901447,Infinity
29,14.807212963625998,Infinity
29,16.815770465137113,Infinity
29,19.09678323873669,Infinity
29,21.687209088835587,Infinity
29,24.629019043836987,Infinity
29,27.96987738611107,Infinity
29,31.76391392615569,Infinity
29,36.07260103361187,Infinity
29,40.96574963511183,Infinity
29,46.522640316481535,Infinity
29,52.833307855829865,Infinity
29,60.000000000000036,Infinity
30,1.5,Infinity
30,1.7034708530003397,Infinity
30,1.9345419646811368,Infinity
30,2.196957233826886,Infinity
30,2.4949684087415682,Infinity
30,2.833403975631933,Infinity
30,3.217747391509522,Infinity
30,3.654225929169562,Infinity
30,4.149911573745622,Infinity
30,4.712835605602958,Infinity
30,5.352118726084562,Infinity
30,6.078118834454907,Infinity
30,6.902598850377554,Infinity
30,7.838917301047878,Infinity
30,8.902244760943432,Infinity
30,10.109809651028076,Infinity
30,11.481177379938575,Infinity
30,13.038567349901447,Infinity
30,14.807212963625998,Infinity
30,16.815770465137113,Infinity
30,19.09678323873669,Infinity
30,21.687209088835587,Infinity
30,24.629019043836987,Infinity
30,27.96987738611107,Infinity
30,31.76391392615569,Infinity
30,36.07260103361187,Infinity
30,40.96574963511183,Infinity
30,46.522640316481535,Infinity
30,52.833307855829865,Infinity
30,60.000000000000036,Infinity
